وَ النَّجۡمِ   اِذَا ہَوٰی  ۙ﴿۱﴾
مَا ضَلَّ صَاحِبُکُمۡ  وَ مَا غَوٰی ۚ﴿۲﴾ 
وَ مَا یَنۡطِقُ عَنِ  الۡہَوٰی  ؕ﴿۳﴾
اِنۡ  ہُوَ   اِلَّا  وَحۡیٌ   یُّوۡحٰی  ۙ﴿۴﴾
عَلَّمَہٗ  شَدِیۡدُ الۡقُوٰی  ۙ﴿۵﴾
ذُوۡ مِرَّۃٍ ؕ  فَاسۡتَوٰی  ۙ﴿۶﴾
وَ ہُوَ  بِالۡاُفُقِ الۡاَعۡلٰی ؕ﴿۷﴾ 
ثُمَّ  دَنَا فَتَدَلّٰی ۙ﴿۸﴾ 
فَکَانَ قَابَ قَوۡسَیۡنِ  اَوۡ اَدۡنٰی  ۚ﴿۹﴾
فَاَوۡحٰۤی  اِلٰی عَبۡدِہٖ  مَاۤ  اَوۡحٰی  ﴿ؕ۱۰﴾
مَا کَذَبَ الۡفُؤَادُ  مَا  رَاٰی  ﴿۱۱﴾
اَفَتُمٰرُوۡنَہٗ  عَلٰی مَا یَرٰی  ﴿۱۲﴾
وَ لَقَدۡ رَاٰہُ  نَزۡلَۃً   اُخۡرٰی  ﴿ۙ۱۳﴾
عِنۡدَ سِدۡرَۃِ  الۡمُنۡتَہٰی ﴿۱۴﴾ 
عِنۡدَہَا جَنَّۃُ  الۡمَاۡوٰی  ﴿ؕ۱۵﴾
اِذۡ  یَغۡشَی السِّدۡرَۃَ  مَا یَغۡشٰی  ﴿ۙ۱۶﴾
مَا زَاغَ الۡبَصَرُ  وَ مَا طَغٰی ﴿۱۷﴾ 
لَقَدۡ رَاٰی مِنۡ اٰیٰتِ رَبِّہِ  الۡکُبۡرٰی ﴿۱۸﴾ 
اَفَرَءَیۡتُمُ  اللّٰتَ وَ الۡعُزّٰی ﴿ۙ۱۹﴾ 
وَ مَنٰوۃَ  الثَّالِثَۃَ  الۡاُخۡرٰی  ﴿۲۰﴾
اَلَکُمُ  الذَّکَرُ  وَ لَہُ  الۡاُنۡثٰی  ﴿۲۱﴾
تِلۡکَ  اِذًا  قِسۡمَۃٌ  ضِیۡزٰی  ﴿۲۲﴾
اِنۡ  ہِیَ  اِلَّاۤ  اَسۡمَآءٌ سَمَّیۡتُمُوۡہَاۤ  اَنۡتُمۡ وَ اٰبَآؤُکُمۡ  مَّاۤ  اَنۡزَلَ اللّٰہُ  بِہَا مِنۡ سُلۡطٰنٍ ؕ اِنۡ یَّتَّبِعُوۡنَ  اِلَّا الظَّنَّ وَ مَا تَہۡوَی الۡاَنۡفُسُ ۚ وَ لَقَدۡ جَآءَہُمۡ مِّنۡ رَّبِّہِمُ  الۡہُدٰی ﴿ؕ۲۳﴾ 
اَمۡ  لِلۡاِنۡسَانِ مَا تَمَنّٰی  ﴿۫ۖ۲۴﴾
فَلِلّٰہِ  الۡاٰخِرَۃُ  وَ الۡاُوۡلٰی ﴿٪۲۵﴾ 
وَ کَمۡ مِّنۡ مَّلَکٍ فِی السَّمٰوٰتِ لَا  تُغۡنِیۡ شَفَاعَتُہُمۡ شَیۡئًا  اِلَّا مِنۡۢ  بَعۡدِ اَنۡ یَّاۡذَنَ اللّٰہُ  لِمَنۡ یَّشَآءُ  وَ  یَرۡضٰی ﴿۲۶﴾ 
اِنَّ  الَّذِیۡنَ لَا یُؤۡمِنُوۡنَ بِالۡاٰخِرَۃِ لَیُسَمُّوۡنَ  الۡمَلٰٓئِکَۃَ  تَسۡمِیَۃَ  الۡاُنۡثٰی ﴿۲۷﴾ 
وَ مَا  لَہُمۡ بِہٖ مِنۡ عِلۡمٍ ؕ اِنۡ یَّتَّبِعُوۡنَ  اِلَّا الظَّنَّ ۚ وَ اِنَّ الظَّنَّ  لَا یُغۡنِیۡ مِنَ الۡحَقِّ شَیۡئًا ﴿ۚ۲۸﴾ 
فَاَعۡرِضۡ عَنۡ مَّنۡ تَوَلّٰی ۬ۙ عَنۡ ذِکۡرِنَا وَ لَمۡ  یُرِدۡ  اِلَّا  الۡحَیٰوۃَ  الدُّنۡیَا ﴿ؕ۲۹﴾ 
ذٰلِکَ مَبۡلَغُہُمۡ  مِّنَ الۡعِلۡمِ ؕ اِنَّ رَبَّکَ ہُوَ اَعۡلَمُ بِمَنۡ ضَلَّ عَنۡ سَبِیۡلِہٖ ۙ وَ ہُوَ اَعۡلَمُ  بِمَنِ  اہۡتَدٰی  ﴿۳۰﴾
وَ لِلّٰہِ مَا فِی السَّمٰوٰتِ وَ مَا فِی الۡاَرۡضِ ۙ لِیَجۡزِیَ الَّذِیۡنَ  اَسَآءُوۡا بِمَا عَمِلُوۡا وَ یَجۡزِیَ الَّذِیۡنَ اَحۡسَنُوۡا بِالۡحُسۡنٰی ﴿ۚ۳۱﴾ 
اَلَّذِیۡنَ یَجۡتَنِبُوۡنَ کَبٰٓئِرَ الۡاِثۡمِ وَ الۡفَوَاحِشَ  اِلَّا اللَّمَمَ ؕ اِنَّ  رَبَّکَ وَاسِعُ  الۡمَغۡفِرَۃِ ؕ ہُوَ اَعۡلَمُ بِکُمۡ  اِذۡ اَنۡشَاَکُمۡ مِّنَ الۡاَرۡضِ وَ اِذۡ  اَنۡتُمۡ  اَجِنَّۃٌ فِیۡ  بُطُوۡنِ اُمَّہٰتِکُمۡ ۚ فَلَا  تُزَکُّوۡۤا اَنۡفُسَکُمۡ ؕ ہُوَ  اَعۡلَمُ  بِمَنِ اتَّقٰی  ٪﴿۳۲﴾
اَفَرَءَیۡتَ الَّذِیۡ  تَوَلّٰی ﴿ۙ۳۳﴾ 
وَ اَعۡطٰی قَلِیۡلًا  وَّ  اَکۡدٰی ﴿۳۴﴾ 
اَعِنۡدَہٗ  عِلۡمُ  الۡغَیۡبِ فَہُوَ یَرٰی ﴿۳۵﴾
اَمۡ  لَمۡ  یُنَبَّاۡ  بِمَا فِیۡ  صُحُفِ مُوۡسٰی ﴿ۙ۳۶﴾ 
وَ  اِبۡرٰہِیۡمَ  الَّذِیۡ  وَفّٰۤی ﴿ۙ۳۷﴾ 
اَلَّا تَزِرُ وَازِرَۃٌ  وِّزۡرَ اُخۡرٰی ﴿ۙ۳۸﴾ 
وَ اَنۡ  لَّیۡسَ لِلۡاِنۡسَانِ  اِلَّا مَا سَعٰی ﴿ۙ۳۹﴾ 
وَ اَنَّ سَعۡیَہٗ  سَوۡفَ یُرٰی ﴿۪۴۰﴾ 
ثُمَّ  یُجۡزٰىہُ  الۡجَزَآءَ  الۡاَوۡفٰی ﴿ۙ۴۱﴾ 
وَ اَنَّ  اِلٰی رَبِّکَ الۡمُنۡتَہٰی ﴿ۙ۴۲﴾ 
وَ اَنَّہٗ  ہُوَ  اَضۡحَکَ وَ اَبۡکٰی ﴿ۙ۴۳﴾ 
وَ اَنَّہٗ  ہُوَ  اَمَاتَ وَ  اَحۡیَا ﴿ۙ۴۴﴾ 
وَ اَنَّہٗ  خَلَقَ  الزَّوۡجَیۡنِ  الذَّکَرَ  وَ الۡاُنۡثٰی ﴿ۙ۴۵﴾ 
مِنۡ نُّطۡفَۃٍ  اِذَا تُمۡنٰی ﴿۪۴۶﴾ 
وَ اَنَّ عَلَیۡہِ  النَّشۡاَۃَ  الۡاُخۡرٰی  ﴿ۙ۴۷﴾
وَ اَنَّہٗ  ہُوَ  اَغۡنٰی وَ  اَقۡنٰی ﴿ۙ۴۸﴾ 
وَ اَنَّہٗ  ہُوَ  رَبُّ  الشِّعۡرٰی ﴿ۙ۴۹﴾ 
وَ اَنَّہٗۤ  اَہۡلَکَ عَادَۨ ا  الۡاُوۡلٰی ﴿ۙ۵۰﴾ 
وَ ثَمُوۡدَا۠   فَمَاۤ   اَبۡقٰی ﴿ۙ۵۱﴾ 
وَ قَوۡمَ نُوۡحٍ مِّنۡ قَبۡلُ ؕ اِنَّہُمۡ کَانُوۡا ہُمۡ  اَظۡلَمَ  وَ اَطۡغٰی ﴿ؕ۵۲﴾  
وَ الۡمُؤۡتَفِکَۃَ  اَہۡوٰی ﴿ۙ۵۳﴾
فَغَشّٰہَا مَا غَشّٰی ﴿ۚ۵۴﴾ 
فَبِاَیِّ  اٰلَآءِ  رَبِّکَ  تَتَمَارٰی ﴿۵۵﴾ 
ہٰذَا نَذِیۡرٌ  مِّنَ  النُّذُرِ  الۡاُوۡلٰی ﴿۵۶﴾ 
اَزِفَتِ  الۡاٰزِفَۃُ ﴿ۚ۵۷﴾ 
لَیۡسَ لَہَا مِنۡ دُوۡنِ اللّٰہِ  کَاشِفَۃٌ ﴿ؕ۵۸﴾ 
اَفَمِنۡ ہٰذَا  الۡحَدِیۡثِ  تَعۡجَبُوۡنَ ﴿ۙ۵۹﴾ 
وَ تَضۡحَکُوۡنَ  وَ لَا  تَبۡکُوۡنَ ﴿ۙ۶۰﴾ 
وَ اَنۡتُمۡ  سٰمِدُوۡنَ ﴿۶۱﴾ 
فَاسۡجُدُوۡا لِلّٰہِ  وَ اعۡبُدُوۡا ﴿٪ٛ۶۲﴾ 
