لَاۤ  اُقۡسِمُ  بِہٰذَا الۡبَلَدِ ۙ﴿۱﴾ 
وَ اَنۡتَ حِلٌّۢ بِہٰذَا الۡبَلَدِ ۙ﴿۲﴾ 
وَ  وَالِدٍ وَّ  مَا وَلَدَ ۙ﴿۳﴾ 
لَقَدۡ خَلَقۡنَا الۡاِنۡسَانَ فِیۡ  کَبَدٍ ؕ﴿۴﴾ 
اَیَحۡسَبُ اَنۡ  لَّنۡ یَّقۡدِرَ عَلَیۡہِ  اَحَدٌ  ۘ﴿۵﴾
یَقُوۡلُ  اَہۡلَکۡتُ مَالًا  لُّبَدًا ؕ﴿۶﴾ 
اَیَحۡسَبُ اَنۡ  لَّمۡ  یَرَہٗۤ   اَحَدٌ ؕ﴿۷﴾ 
اَلَمۡ  نَجۡعَلۡ لَّہٗ عَیۡنَیۡنِ ۙ﴿۸﴾ 
وَ  لِسَانًا وَّ  شَفَتَیۡنِ ۙ﴿۹﴾ 
وَ ہَدَیۡنٰہُ  النَّجۡدَیۡنِ ﴿ۚ۱۰﴾ 
فَلَا  اقۡتَحَمَ الۡعَقَبَۃَ ﴿۫ۖ۱۱﴾  
وَ مَاۤ  اَدۡرٰىکَ مَا الۡعَقَبَۃُ ﴿ؕ۱۲﴾ 
فَکُّ رَقَبَۃٍ ﴿ۙ۱۳﴾ 
اَوۡ  اِطۡعٰمٌ فِیۡ یَوۡمٍ ذِیۡ مَسۡغَبَۃٍ ﴿ۙ۱۴﴾ 
یَّتِیۡمًا ذَا مَقۡرَبَۃٍ ﴿ۙ۱۵﴾ 
اَوۡ مِسۡکِیۡنًا ذَا مَتۡرَبَۃٍ ﴿ؕ۱۶﴾ 
ثُمَّ کَانَ مِنَ الَّذِیۡنَ  اٰمَنُوۡا وَ تَوَاصَوۡا بِالصَّبۡرِ  وَ تَوَاصَوۡا بِالۡمَرۡحَمَۃِ ﴿ؕ۱۷﴾ 
اُولٰٓئِکَ اَصۡحٰبُ الۡمَیۡمَنَۃِ ﴿ؕ۱۸﴾ 
وَ الَّذِیۡنَ کَفَرُوۡا بِاٰیٰتِنَا ہُمۡ اَصۡحٰبُ الۡمَشۡـَٔمَۃِ ﴿ؕ۱۹﴾ 
عَلَیۡہِمۡ  نَارٌ  مُّؤۡصَدَۃٌ ﴿٪۲۰﴾ 
