اَلَمۡ  تَرَ کَیۡفَ فَعَلَ رَبُّکَ  بِاَصۡحٰبِ الۡفِیۡلِ ؕ﴿۱﴾ 
اَلَمۡ  یَجۡعَلۡ  کَیۡدَہُمۡ فِیۡ  تَضۡلِیۡلٍ ۙ﴿۲﴾ 
وَّ  اَرۡسَلَ عَلَیۡہِمۡ  طَیۡرًا  اَبَابِیۡلَ ۙ﴿۳﴾ 
تَرۡمِیۡہِمۡ  بِحِجَارَۃٍ  مِّنۡ سِجِّیۡلٍ ۪ۙ﴿۴﴾ 
فَجَعَلَہُمۡ کَعَصۡفٍ مَّاۡکُوۡلٍ ٪﴿۵﴾ 
