اَرَءَیۡتَ  الَّذِیۡ یُکَذِّبُ بِالدِّیۡنِ ؕ﴿۱﴾ 
فَذٰلِکَ الَّذِیۡ یَدُعُّ  الۡیَتِیۡمَ ۙ﴿۲﴾ 
وَ لَا یَحُضُّ عَلٰی طَعَامِ الۡمِسۡکِیۡنِ ؕ﴿۳﴾ 
فَوَیۡلٌ  لِّلۡمُصَلِّیۡنَ ۙ﴿۴﴾ 
الَّذِیۡنَ ہُمۡ عَنۡ صَلَاتِہِمۡ سَاہُوۡنَ ۙ﴿۵﴾ 
الَّذِیۡنَ ہُمۡ  یُرَآءُوۡنَ ۙ﴿۶﴾  
وَ یَمۡنَعُوۡنَ الۡمَاعُوۡنَ ٪﴿۷﴾ 
