یٰۤاَیُّہَا النَّاسُ اتَّقُوۡا رَبَّکُمۡ ۚ اِنَّ  زَلۡزَلَۃَ  السَّاعَۃِ  شَیۡءٌ  عَظِیۡمٌ ﴿۱﴾ 
یَوۡمَ تَرَوۡنَہَا تَذۡہَلُ کُلُّ مُرۡضِعَۃٍ عَمَّاۤ اَرۡضَعَتۡ وَ تَضَعُ کُلُّ ذَاتِ حَمۡلٍ حَمۡلَہَا وَ تَرَی النَّاسَ سُکٰرٰی وَ مَا ہُمۡ  بِسُکٰرٰی وَ لٰکِنَّ عَذَابَ اللّٰہِ شَدِیۡدٌ ﴿۲﴾ 
وَ مِنَ النَّاسِ مَنۡ یُّجَادِلُ فِی اللّٰہِ  بِغَیۡرِ عِلۡمٍ  وَّ  یَتَّبِعُ  کُلَّ  شَیۡطٰنٍ  مَّرِیۡدٍ ۙ﴿۳﴾ 
کُتِبَ عَلَیۡہِ  اَنَّہٗ  مَنۡ تَوَلَّاہُ  فَاَنَّہٗ یُضِلُّہٗ وَ یَہۡدِیۡہِ  اِلٰی عَذَابِ السَّعِیۡرِ ﴿۴﴾ 
یٰۤاَیُّہَا النَّاسُ  اِنۡ  کُنۡتُمۡ فِیۡ رَیۡبٍ مِّنَ الۡبَعۡثِ فَاِنَّا خَلَقۡنٰکُمۡ مِّنۡ تُرَابٍ ثُمَّ مِنۡ نُّطۡفَۃٍ  ثُمَّ مِنۡ عَلَقَۃٍ  ثُمَّ مِنۡ مُّضۡغَۃٍ مُّخَلَّقَۃٍ  وَّ غَیۡرِ مُخَلَّقَۃٍ  لِّنُبَیِّنَ لَکُمۡ ؕ وَ نُقِرُّ  فِی الۡاَرۡحَامِ مَا نَشَآءُ  اِلٰۤی اَجَلٍ مُّسَمًّی ثُمَّ نُخۡرِجُکُمۡ طِفۡلًا ثُمَّ  لِتَبۡلُغُوۡۤا  اَشُدَّکُمۡ ۚ وَ مِنۡکُمۡ  مَّنۡ یُّتَوَفّٰی وَ مِنۡکُمۡ مَّنۡ یُّرَدُّ  اِلٰۤی  اَرۡذَلِ الۡعُمُرِ لِکَیۡلَا یَعۡلَمَ مِنۡۢ بَعۡدِ عِلۡمٍ شَیۡئًا ؕ وَ تَرَی الۡاَرۡضَ ہَامِدَۃً  فَاِذَاۤ  اَنۡزَلۡنَا عَلَیۡہَا الۡمَآءَ   اہۡتَزَّتۡ وَ  رَبَتۡ وَ  اَنۡۢبَتَتۡ مِنۡ  کُلِّ  زَوۡجٍۭ  بَہِیۡجٍ ﴿۵﴾ 
ذٰلِکَ بِاَنَّ اللّٰہَ ہُوَ الۡحَقُّ وَ اَنَّہٗ یُحۡیِ الۡمَوۡتٰی  وَ  اَنَّہٗ  عَلٰی کُلِّ  شَیۡءٍ  قَدِیۡرٌ ۙ﴿۶﴾ 
وَّ  اَنَّ السَّاعَۃَ اٰتِیَۃٌ  لَّا رَیۡبَ  فِیۡہَا ۙ وَ اَنَّ اللّٰہَ  یَبۡعَثُ  مَنۡ  فِی  الۡقُبُوۡرِ ﴿۷﴾ 
وَ مِنَ النَّاسِ مَنۡ یُّجَادِلُ فِی اللّٰہِ بِغَیۡرِ عِلۡمٍ  وَّ لَا ہُدًی وَّ لَا کِتٰبٍ مُّنِیۡرٍ ۙ﴿۸﴾ 
ثَانِیَ عِطۡفِہٖ  لِیُضِلَّ عَنۡ  سَبِیۡلِ اللّٰہِ ؕ لَہٗ فِی الدُّنۡیَا خِزۡیٌ وَّ نُذِیۡقُہٗ یَوۡمَ الۡقِیٰمَۃِ  عَذَابَ  الۡحَرِیۡقِ ﴿۹﴾ 
ذٰلِکَ بِمَا قَدَّمَتۡ یَدٰکَ وَ اَنَّ اللّٰہَ لَیۡسَ بِظَلَّامٍ   لِّلۡعَبِیۡدِ ﴿٪۱۰﴾ 
وَ مِنَ النَّاسِ مَنۡ یَّعۡبُدُ اللّٰہَ عَلٰی حَرۡفٍ ۚ فَاِنۡ  اَصَابَہٗ  خَیۡرُۨ  اطۡمَاَنَّ بِہٖ ۚ وَ اِنۡ اَصَابَتۡہُ فِتۡنَۃُۨ  انۡقَلَبَ عَلٰی وَجۡہِہٖ ۟ۚ  خَسِرَ الدُّنۡیَا وَ الۡاٰخِرَۃَ ؕ ذٰلِکَ  ہُوَ  الۡخُسۡرَانُ  الۡمُبِیۡنُ ﴿۱۱﴾ 
یَدۡعُوۡا مِنۡ دُوۡنِ اللّٰہِ  مَا لَا  یَضُرُّہٗ  وَ مَا لَا یَنۡفَعُہٗ ؕ ذٰلِکَ ہُوَ الضَّلٰلُ الۡبَعِیۡدُ ﴿ۚ۱۲﴾ 
یَدۡعُوۡا لَمَنۡ ضَرُّہٗۤ  اَقۡرَبُ مِنۡ نَّفۡعِہٖ ؕ لَبِئۡسَ  الۡمَوۡلٰی  وَ  لَبِئۡسَ  الۡعَشِیۡرُ ﴿۱۳﴾ 
اِنَّ اللّٰہَ یُدۡخِلُ الَّذِیۡنَ اٰمَنُوۡا وَ عَمِلُوا الصّٰلِحٰتِ جَنّٰتٍ تَجۡرِیۡ مِنۡ تَحۡتِہَا الۡاَنۡہٰرُ ؕ اِنَّ  اللّٰہَ  یَفۡعَلُ  مَا  یُرِیۡدُ ﴿۱۴﴾ 
مَنۡ کَانَ یَظُنُّ  اَنۡ لَّنۡ یَّنۡصُرَہُ اللّٰہُ فِی الدُّنۡیَا وَ الۡاٰخِرَۃِ  فَلۡیَمۡدُدۡ  بِسَبَبٍ  اِلَی السَّمَآءِ  ثُمَّ لۡیَقۡطَعۡ فَلۡیَنۡظُرۡ ہَلۡ یُذۡہِبَنَّ  کَیۡدُہٗ   مَا  یَغِیۡظُ ﴿۱۵﴾ 
وَ کَذٰلِکَ  اَنۡزَلۡنٰہُ اٰیٰتٍۭ بَیِّنٰتٍ ۙ وَّ اَنَّ اللّٰہَ  یَہۡدِیۡ  مَنۡ  یُّرِیۡدُ ﴿۱۶﴾ 
اِنَّ الَّذِیۡنَ اٰمَنُوۡا وَ الَّذِیۡنَ ہَادُوۡا وَ الصّٰبِئِیۡنَ وَ النَّصٰرٰی وَ الۡمَجُوۡسَ وَ الَّذِیۡنَ اَشۡرَکُوۡۤا ٭ۖ اِنَّ اللّٰہَ یَفۡصِلُ بَیۡنَہُمۡ  یَوۡمَ الۡقِیٰمَۃِ ؕ اِنَّ اللّٰہَ  عَلٰی  کُلِّ  شَیۡءٍ  شَہِیۡدٌ ﴿۱۷﴾
اَلَمۡ تَرَ اَنَّ اللّٰہَ یَسۡجُدُ لَہٗ  مَنۡ فِی السَّمٰوٰتِ وَ مَنۡ فِی الۡاَرۡضِ وَ الشَّمۡسُ وَ الۡقَمَرُ وَ النُّجُوۡمُ وَ الۡجِبَالُ وَ الشَّجَرُ وَ الدَّوَآبُّ وَ کَثِیۡرٌ  مِّنَ  النَّاسِ ؕ وَ کَثِیۡرٌ حَقَّ عَلَیۡہِ الۡعَذَابُ ؕ وَ مَنۡ  یُّہِنِ اللّٰہُ  فَمَا لَہٗ  مِنۡ مُّکۡرِمٍ ؕ اِنَّ اللّٰہَ  یَفۡعَلُ مَا  یَشَآءُ ﴿ؕٛ۱۸﴾ 
ہٰذٰنِ خَصۡمٰنِ اخۡتَصَمُوۡا فِیۡ رَبِّہِمۡ ۫ فَالَّذِیۡنَ کَفَرُوۡا قُطِّعَتۡ لَہُمۡ ثِیَابٌ مِّنۡ نَّارٍ ؕ یُصَبُّ مِنۡ فَوۡقِ رُءُوۡسِہِمُ الۡحَمِیۡمُ ﴿ۚ۱۹﴾ 
یُصۡہَرُ  بِہٖ  مَا فِیۡ  بُطُوۡنِہِمۡ  وَ الۡجُلُوۡدُ ﴿ؕ۲۰﴾ 
وَ لَہُمۡ  مَّقَامِعُ مِنۡ  حَدِیۡدٍ ﴿۲۱﴾ 
کُلَّمَاۤ  اَرَادُوۡۤا اَنۡ یَّخۡرُجُوۡا مِنۡہَا مِنۡ غَمٍّ  اُعِیۡدُوۡا فِیۡہَا ٭ وَ ذُوۡقُوۡا عَذَابَ الۡحَرِیۡقِ ﴿٪۲۲﴾ 
اِنَّ اللّٰہَ یُدۡخِلُ الَّذِیۡنَ اٰمَنُوۡا وَ عَمِلُوا الصّٰلِحٰتِ جَنّٰتٍ تَجۡرِیۡ مِنۡ تَحۡتِہَا الۡاَنۡہٰرُ  یُحَلَّوۡنَ فِیۡہَا مِنۡ اَسَاوِرَ مِنۡ ذَہَبٍ وَّ لُؤۡلُؤًا ؕ وَ لِبَاسُہُمۡ  فِیۡہَا حَرِیۡرٌ ﴿۲۳﴾ 
وَ ہُدُوۡۤا اِلٰی الطَّیِّبِ مِنَ الۡقَوۡلِ ۚۖ وَ ہُدُوۡۤا  اِلَی  صِرَاطِ  الۡحَمِیۡدِ ﴿۲۴﴾ 
اِنَّ الَّذِیۡنَ کَفَرُوۡا وَ یَصُدُّوۡنَ عَنۡ سَبِیۡلِ اللّٰہِ وَ الۡمَسۡجِدِ  الۡحَرَامِ  الَّذِیۡ جَعَلۡنٰہُ  لِلنَّاسِ سَوَآءَۨ  الۡعَاکِفُ فِیۡہِ وَ الۡبَادِ ؕ وَ مَنۡ یُّرِدۡ  فِیۡہِ  بِاِلۡحَادٍۭ بِظُلۡمٍ  نُّذِقۡہُ  مِنۡ  عَذَابٍ  اَلِیۡمٍ ﴿٪۲۵﴾ 
وَ اِذۡ بَوَّاۡنَا لِاِبۡرٰہِیۡمَ مَکَانَ الۡبَیۡتِ اَنۡ لَّا تُشۡرِکۡ بِیۡ شَیۡئًا وَّ طَہِّرۡ بَیۡتِیَ لِلطَّآئِفِیۡنَ وَ الۡقَآئِمِیۡنَ وَ الرُّکَّعِ السُّجُوۡدِ ﴿۲۶﴾ 
وَ اَذِّنۡ فِی النَّاسِ بِالۡحَجِّ  یَاۡتُوۡکَ  رِجَالًا وَّ عَلٰی کُلِّ ضَامِرٍ یَّاۡتِیۡنَ مِنۡ کُلِّ فَجٍّ عَمِیۡقٍ ﴿ۙ۲۷﴾ 
لِّیَشۡہَدُوۡا مَنَافِعَ  لَہُمۡ  وَ یَذۡکُرُوا  اسۡمَ اللّٰہِ فِیۡۤ  اَیَّامٍ مَّعۡلُوۡمٰتٍ عَلٰی مَا رَزَقَہُمۡ مِّنۡۢ بَہِیۡمَۃِ الۡاَنۡعَامِ ۚ فَکُلُوۡا مِنۡہَا وَ اَطۡعِمُوا  الۡبَآئِسَ الۡفَقِیۡرَ ﴿۫۲۸﴾ 
ثُمَّ لۡیَقۡضُوۡا تَفَثَہُمۡ وَ لۡیُوۡفُوۡا نُذُوۡرَہُمۡ وَ لۡیَطَّوَّفُوۡا بِالۡبَیۡتِ الۡعَتِیۡقِ ﴿۲۹﴾ 
ذٰلِکَ ٭ وَ مَنۡ یُّعَظِّمۡ حُرُمٰتِ اللّٰہِ فَہُوَ خَیۡرٌ لَّہٗ عِنۡدَ رَبِّہٖ ؕ وَ اُحِلَّتۡ لَکُمُ الۡاَنۡعَامُ  اِلَّا مَا یُتۡلٰی عَلَیۡکُمۡ فَاجۡتَنِبُوا الرِّجۡسَ مِنَ الۡاَوۡثَانِ وَ اجۡتَنِبُوۡا  قَوۡلَ  الزُّوۡرِ ﴿ۙ۳۰﴾ 
حُنَفَآءَ لِلّٰہِ غَیۡرَ  مُشۡرِکِیۡنَ بِہٖ ؕ وَ مَنۡ یُّشۡرِکۡ بِاللّٰہِ فَکَاَنَّمَا خَرَّ  مِنَ السَّمَآءِ فَتَخۡطَفُہُ الطَّیۡرُ  اَوۡ تَہۡوِیۡ بِہِ الرِّیۡحُ فِیۡ مَکَانٍ  سَحِیۡقٍ ﴿۳۱﴾ 
ذٰلِکَ ٭ وَ مَنۡ یُّعَظِّمۡ شَعَآئِرَ  اللّٰہِ فَاِنَّہَا مِنۡ  تَقۡوَی  الۡقُلُوۡبِ  ﴿۳۲﴾
لَکُمۡ  فِیۡہَا مَنَافِعُ  اِلٰۤی اَجَلٍ مُّسَمًّی ثُمَّ  مَحِلُّہَاۤ  اِلَی الۡبَیۡتِ  الۡعَتِیۡقِ ﴿٪۳۳﴾ 
وَ لِکُلِّ اُمَّۃٍ جَعَلۡنَا مَنۡسَکًا لِّیَذۡکُرُوا اسۡمَ اللّٰہِ عَلٰی مَا رَزَقَہُمۡ مِّنۡۢ بَہِیۡمَۃِ الۡاَنۡعَامِ ؕ فَاِلٰـہُکُمۡ اِلٰہٌ  وَّاحِدٌ فَلَہٗۤ اَسۡلِمُوۡا ؕ وَ  بَشِّرِ  الۡمُخۡبِتِیۡنَ ﴿ۙ۳۴﴾ 
الَّذِیۡنَ اِذَا ذُکِرَ  اللّٰہُ وَجِلَتۡ قُلُوۡبُہُمۡ وَ الصّٰبِرِیۡنَ عَلٰی مَاۤ  اَصَابَہُمۡ وَ الۡمُقِیۡمِی الصَّلٰوۃِ ۙ وَ  مِمَّا  رَزَقۡنٰہُمۡ  یُنۡفِقُوۡنَ ﴿۳۵﴾ 
وَ الۡبُدۡنَ جَعَلۡنٰہَا لَکُمۡ مِّنۡ  شَعَآئِرِ اللّٰہِ لَکُمۡ فِیۡہَا خَیۡرٌ ٭ۖ فَاذۡکُرُوا اسۡمَ اللّٰہِ عَلَیۡہَا صَوَآفَّ ۚ فَاِذَا وَجَبَتۡ جُنُوۡبُہَا فَکُلُوۡا مِنۡہَا وَ اَطۡعِمُوا الۡقَانِعَ وَ الۡمُعۡتَرَّ ؕ کَذٰلِکَ سَخَّرۡنٰہَا لَکُمۡ لَعَلَّکُمۡ تَشۡکُرُوۡنَ ﴿۳۶﴾ 
لَنۡ یَّنَالَ اللّٰہَ  لُحُوۡمُہَا وَ لَا دِمَآؤُہَا وَ لٰکِنۡ یَّنَالُہُ التَّقۡوٰی مِنۡکُمۡ ؕ کَذٰلِکَ سَخَّرَہَا لَکُمۡ لِتُکَبِّرُوا اللّٰہَ عَلٰی مَا ہَدٰىکُمۡ ؕ وَ بَشِّرِ  الۡمُحۡسِنِیۡنَ ﴿۳۷﴾ 
اِنَّ اللّٰہَ یُدٰفِعُ عَنِ الَّذِیۡنَ اٰمَنُوۡا ؕ اِنَّ اللّٰہَ لَا یُحِبُّ کُلَّ  خَوَّانٍ  کَفُوۡرٍ ﴿٪۳۸﴾ 
اُذِنَ لِلَّذِیۡنَ یُقٰتَلُوۡنَ بِاَنَّہُمۡ ظُلِمُوۡا ؕ وَ اِنَّ  اللّٰہَ  عَلٰی  نَصۡرِہِمۡ  لَقَدِیۡرُۨ  ﴿ۙ۳۹﴾
الَّذِیۡنَ اُخۡرِجُوۡا مِنۡ دِیَارِہِمۡ  بِغَیۡرِ  حَقٍّ اِلَّاۤ  اَنۡ یَّقُوۡلُوۡا رَبُّنَا اللّٰہُ ؕ وَ لَوۡ لَا دَفۡعُ اللّٰہِ النَّاسَ بَعۡضَہُمۡ بِبَعۡضٍ لَّہُدِّمَتۡ صَوَامِعُ وَ بِیَعٌ وَّ صَلَوٰتٌ وَّ مَسٰجِدُ یُذۡکَرُ فِیۡہَا اسۡمُ اللّٰہِ کَثِیۡرًا ؕ وَ لَیَنۡصُرَنَّ اللّٰہُ مَنۡ یَّنۡصُرُہٗ ؕ اِنَّ اللّٰہَ لَقَوِیٌّ عَزِیۡزٌ ﴿۴۰﴾ 
اَلَّذِیۡنَ  اِنۡ مَّکَّنّٰہُمۡ  فِی الۡاَرۡضِ اَقَامُوا الصَّلٰوۃَ وَ اٰتَوُا الزَّکٰوۃَ وَ اَمَرُوۡا بِالۡمَعۡرُوۡفِ وَ  نَہَوۡا عَنِ الۡمُنۡکَرِ ؕ وَ لِلّٰہِ  عَاقِبَۃُ  الۡاُمُوۡرِ ﴿۴۱﴾ 
وَ اِنۡ یُّکَذِّبُوۡکَ فَقَدۡ کَذَّبَتۡ قَبۡلَہُمۡ قَوۡمُ  نُوۡحٍ  وَّ عَادٌ  وَّ  ثَمُوۡدُ ﴿ۙ۴۲﴾ 
وَ  قَوۡمُ   اِبۡرٰہِیۡمَ  وَ  قَوۡمُ  لُوۡطٍ ﴿ۙ۴۳﴾ 
وَّ اَصۡحٰبُ مَدۡیَنَ ۚ وَ کُذِّبَ مُوۡسٰی فَاَمۡلَیۡتُ لِلۡکٰفِرِیۡنَ ثُمَّ  اَخَذۡتُہُمۡ ۚ فَکَیۡفَ کَانَ نَکِیۡرِ ﴿۴۴﴾ 
فَکَاَیِّنۡ مِّنۡ قَرۡیَۃٍ  اَہۡلَکۡنٰہَا وَ ہِیَ ظَالِمَۃٌ  فَہِیَ خَاوِیَۃٌ عَلٰی عُرُوۡشِہَا وَ بِئۡرٍ  مُّعَطَّلَۃٍ   وَّ  قَصۡرٍ  مَّشِیۡدٍ ﴿۴۵﴾ 
اَفَلَمۡ یَسِیۡرُوۡا فِی الۡاَرۡضِ فَتَکُوۡنَ لَہُمۡ قُلُوۡبٌ یَّعۡقِلُوۡنَ بِہَاۤ  اَوۡ اٰذَانٌ یَّسۡمَعُوۡنَ بِہَا ۚ فَاِنَّہَا لَا تَعۡمَی الۡاَبۡصَارُ  وَ لٰکِنۡ  تَعۡمَی الۡقُلُوۡبُ الَّتِیۡ فِی الصُّدُوۡرِ ﴿۴۶﴾ 
وَ  یَسۡتَعۡجِلُوۡنَکَ بِالۡعَذَابِ وَ لَنۡ یُّخۡلِفَ اللّٰہُ وَعۡدَہٗ ؕ وَ اِنَّ یَوۡمًا عِنۡدَ رَبِّکَ  کَاَلۡفِ  سَنَۃٍ   مِّمَّا  تَعُدُّوۡنَ ﴿۴۷﴾ 
وَ کَاَیِّنۡ مِّنۡ قَرۡیَۃٍ  اَمۡلَیۡتُ لَہَا وَ ہِیَ ظَالِمَۃٌ  ثُمَّ اَخَذۡتُہَا ۚ وَ اِلَیَّ الۡمَصِیۡرُ ﴿٪۴۸﴾ 
قُلۡ یٰۤاَیُّہَا النَّاسُ اِنَّمَاۤ  اَنَا لَکُمۡ نَذِیۡرٌ  مُّبِیۡنٌ ﴿ۚ۴۹﴾ 
فَالَّذِیۡنَ اٰمَنُوۡا وَ عَمِلُوا الصّٰلِحٰتِ لَہُمۡ مَّغۡفِرَۃٌ  وَّ  رِزۡقٌ  کَرِیۡمٌ ﴿۵۰﴾ 
وَ الَّذِیۡنَ سَعَوۡا فِیۡۤ  اٰیٰتِنَا مُعٰجِزِیۡنَ اُولٰٓئِکَ  اَصۡحٰبُ  الۡجَحِیۡمِ ﴿۵۱﴾ 
وَ مَاۤ  اَرۡسَلۡنَا مِنۡ قَبۡلِکَ مِنۡ رَّسُوۡلٍ وَّ لَا نَبِیٍّ  اِلَّاۤ  اِذَا تَمَنّٰۤی اَلۡقَی الشَّیۡطٰنُ فِیۡۤ اُمۡنِیَّتِہٖ ۚ فَیَنۡسَخُ اللّٰہُ مَا یُلۡقِی الشَّیۡطٰنُ ثُمَّ  یُحۡکِمُ  اللّٰہُ  اٰیٰتِہٖ ؕ وَ  اللّٰہُ عَلِیۡمٌ  حَکِیۡمٌ  ﴿ۙ۵۲﴾
لِّیَجۡعَلَ مَا یُلۡقِی الشَّیۡطٰنُ فِتۡنَۃً لِّلَّذِیۡنَ فِیۡ قُلُوۡبِہِمۡ مَّرَضٌ وَّ الۡقَاسِیَۃِ  قُلُوۡبُہُمۡ ؕ وَ اِنَّ الظّٰلِمِیۡنَ لَفِیۡ شِقَاقٍۭ بَعِیۡدٍ ﴿ۙ۵۳﴾ 
وَّ لِیَعۡلَمَ الَّذِیۡنَ اُوۡتُوا الۡعِلۡمَ اَنَّہُ الۡحَقُّ مِنۡ رَّبِّکَ فَیُؤۡمِنُوۡا بِہٖ فَتُخۡبِتَ لَہٗ قُلُوۡبُہُمۡ ؕ وَ اِنَّ اللّٰہَ لَہَادِ الَّذِیۡنَ اٰمَنُوۡۤا  اِلٰی  صِرَاطٍ  مُّسۡتَقِیۡمٍ ﴿۵۴﴾ 
وَ لَا یَزَالُ الَّذِیۡنَ  کَفَرُوۡا فِیۡ  مِرۡیَۃٍ  مِّنۡہُ حَتّٰی تَاۡتِیَہُمُ السَّاعَۃُ بَغۡتَۃً اَوۡ یَاۡتِیَہُمۡ  عَذَابُ  یَوۡمٍ  عَقِیۡمٍ ﴿۵۵﴾ 
اَلۡمُلۡکُ یَوۡمَئِذٍ لِّلّٰہِ ؕ یَحۡکُمُ بَیۡنَہُمۡ ؕ فَالَّذِیۡنَ اٰمَنُوۡا وَ عَمِلُوا الصّٰلِحٰتِ فِیۡ جَنّٰتِ النَّعِیۡمِ ﴿۵۶﴾ 
وَ الَّذِیۡنَ کَفَرُوۡا وَ کَذَّبُوۡا بِاٰیٰتِنَا فَاُولٰٓئِکَ  لَہُمۡ  عَذَابٌ  مُّہِیۡنٌ ﴿٪۵۷﴾ 
وَ الَّذِیۡنَ ہَاجَرُوۡا فِیۡ سَبِیۡلِ اللّٰہِ ثُمَّ قُتِلُوۡۤا اَوۡ مَاتُوۡا لَیَرۡزُقَنَّہُمُ اللّٰہُ رِزۡقًا حَسَنًا ؕ وَ اِنَّ اللّٰہَ  لَہُوَ  خَیۡرُ  الرّٰزِقِیۡنَ ﴿۵۸﴾ 
لَیُدۡخِلَنَّہُمۡ مُّدۡخَلًا  یَّرۡضَوۡنَہٗ ؕ وَ اِنَّ اللّٰہَ  لَعَلِیۡمٌ  حَلِیۡمٌ ﴿۵۹﴾ 
ذٰلِکَ ۚ وَ مَنۡ عَاقَبَ بِمِثۡلِ مَا عُوۡقِبَ بِہٖ ثُمَّ بُغِیَ عَلَیۡہِ لَیَنۡصُرَنَّہُ اللّٰہُ ؕ اِنَّ اللّٰہَ  لَعَفُوٌّ  غَفُوۡرٌ ﴿۶۰﴾ 
ذٰلِکَ بِاَنَّ اللّٰہَ یُوۡلِجُ الَّیۡلَ  فِی النَّہَارِ  وَ یُوۡلِجُ النَّہَارَ فِی الَّیۡلِ وَ اَنَّ اللّٰہَ سَمِیۡعٌۢ  بَصِیۡرٌ ﴿۶۱﴾ 
ذٰلِکَ بِاَنَّ اللّٰہَ ہُوَ الۡحَقُّ وَ اَنَّ مَا یَدۡعُوۡنَ مِنۡ دُوۡنِہٖ ہُوَ الۡبَاطِلُ وَ اَنَّ اللّٰہَ  ہُوَ  الۡعَلِیُّ الۡکَبِیۡرُ ﴿۶۲﴾ 
اَلَمۡ  تَرَ  اَنَّ اللّٰہَ  اَنۡزَلَ  مِنَ  السَّمَآءِ  مَآءً ۫ فَتُصۡبِحُ  الۡاَرۡضُ  مُخۡضَرَّۃً ؕ اِنَّ  اللّٰہَ لَطِیۡفٌ خَبِیۡرٌ ﴿ۚ۶۳﴾ 
لَہٗ مَا فِی السَّمٰوٰتِ وَ مَا فِی الۡاَرۡضِ ؕ وَ اِنَّ  اللّٰہَ  لَہُوَ  الۡغَنِیُّ  الۡحَمِیۡدُ ﴿٪۶۴﴾ 
اَلَمۡ تَرَ اَنَّ اللّٰہَ سَخَّرَ لَکُمۡ مَّا فِی الۡاَرۡضِ وَ الۡفُلۡکَ  تَجۡرِیۡ فِی الۡبَحۡرِ بِاَمۡرِہٖ ؕ وَ  یُمۡسِکُ  السَّمَآءَ   اَنۡ تَقَعَ عَلَی الۡاَرۡضِ اِلَّا بِاِذۡنِہٖ ؕ اِنَّ اللّٰہَ بِالنَّاسِ  لَرَءُوۡفٌ  رَّحِیۡمٌ ﴿۶۵﴾ 
وَ ہُوَ الَّذِیۡۤ  اَحۡیَاکُمۡ ۫ ثُمَّ یُمِیۡتُکُمۡ  ثُمَّ  یُحۡیِیۡکُمۡ ؕ اِنَّ  الۡاِنۡسَانَ لَکَفُوۡرٌ ﴿۶۶﴾ 
لِکُلِّ اُمَّۃٍ جَعَلۡنَا مَنۡسَکًا ہُمۡ نَاسِکُوۡہُ فَلَا یُنَازِعُنَّکَ  فِی الۡاَمۡرِ وَ ادۡعُ  اِلٰی رَبِّکَ ؕ اِنَّکَ  لَعَلٰی ہُدًی مُّسۡتَقِیۡمٍ ﴿۶۷﴾ 
وَ اِنۡ جٰدَلُوۡکَ فَقُلِ اللّٰہُ  اَعۡلَمُ بِمَا تَعۡمَلُوۡنَ ﴿۶۸﴾ 
اَللّٰہُ  یَحۡکُمُ  بَیۡنَکُمۡ  یَوۡمَ الۡقِیٰمَۃِ  فِیۡمَا کُنۡتُمۡ  فِیۡہِ  تَخۡتَلِفُوۡنَ ﴿۶۹﴾ 
اَلَمۡ  تَعۡلَمۡ  اَنَّ اللّٰہَ یَعۡلَمُ  مَا فِی السَّمَآءِ وَ الۡاَرۡضِ ؕ اِنَّ  ذٰلِکَ فِیۡ   کِتٰبٍ ؕ اِنَّ  ذٰلِکَ عَلَی   اللّٰہِ  یَسِیۡرٌ ﴿۷۰﴾ 
وَ یَعۡبُدُوۡنَ مِنۡ دُوۡنِ اللّٰہِ مَا لَمۡ  یُنَزِّلۡ بِہٖ سُلۡطٰنًا وَّ مَا لَیۡسَ لَہُمۡ بِہٖ عِلۡمٌ ؕ وَ مَا  لِلظّٰلِمِیۡنَ  مِنۡ  نَّصِیۡرٍ ﴿۷۱﴾ 
وَ اِذَا تُتۡلٰی عَلَیۡہِمۡ اٰیٰتُنَا بَیِّنٰتٍ تَعۡرِفُ فِیۡ  وُجُوۡہِ  الَّذِیۡنَ کَفَرُوا الۡمُنۡکَرَ ؕ یَکَادُوۡنَ یَسۡطُوۡنَ بِالَّذِیۡنَ یَتۡلُوۡنَ عَلَیۡہِمۡ اٰیٰتِنَا ؕ قُلۡ اَفَاُنَبِّئُکُمۡ بِشَرٍّ مِّنۡ ذٰلِکُمۡ ؕ اَلنَّارُ ؕ وَعَدَہَا اللّٰہُ  الَّذِیۡنَ   کَفَرُوۡا ؕ وَ  بِئۡسَ الۡمَصِیۡرُ ﴿٪۷۲﴾ 
یٰۤاَیُّہَا النَّاسُ ضُرِبَ مَثَلٌ  فَاسۡتَمِعُوۡا لَہٗ  ؕ اِنَّ الَّذِیۡنَ تَدۡعُوۡنَ مِنۡ دُوۡنِ اللّٰہِ لَنۡ یَّخۡلُقُوۡا ذُبَابًا وَّ لَوِ اجۡتَمَعُوۡا  لَہٗ ؕ وَ اِنۡ یَّسۡلُبۡہُمُ الذُّبَابُ شَیۡئًا لَّا یَسۡتَنۡقِذُوۡہُ  مِنۡہُ ؕ ضَعُفَ الطَّالِبُ وَ الۡمَطۡلُوۡبُ ﴿۷۳﴾ 
مَا قَدَرُوا اللّٰہَ حَقَّ قَدۡرِہٖ ؕ اِنَّ اللّٰہَ لَقَوِیٌّ عَزِیۡزٌ ﴿۷۴﴾ 
اَللّٰہُ یَصۡطَفِیۡ مِنَ الۡمَلٰٓئِکَۃِ  رُسُلًا وَّ مِنَ النَّاسِ ؕ اِنَّ اللّٰہَ سَمِیۡعٌۢ  بَصِیۡرٌ ﴿ۚ۷۵﴾ 
یَعۡلَمُ مَا بَیۡنَ اَیۡدِیۡہِمۡ وَ مَا خَلۡفَہُمۡ ؕ وَ اِلَی اللّٰہِ  تُرۡجَعُ الۡاُمُوۡرُ ﴿۷۶﴾ 
یٰۤاَیُّہَا الَّذِیۡنَ اٰمَنُوا ارۡکَعُوۡا  وَ اسۡجُدُوۡا وَ اعۡبُدُوۡا رَبَّکُمۡ وَ افۡعَلُوا الۡخَیۡرَ   لَعَلَّکُمۡ  تُفۡلِحُوۡنَ ﴿ۚٛ۷۷﴾ 
وَ جَاہِدُوۡا فِی اللّٰہِ حَقَّ جِہَادِہٖ ؕ ہُوَ اجۡتَبٰىکُمۡ وَ مَا جَعَلَ عَلَیۡکُمۡ فِی الدِّیۡنِ مِنۡ حَرَجٍ ؕ مِلَّۃَ  اَبِیۡکُمۡ اِبۡرٰہِیۡمَ ؕ ہُوَ سَمّٰىکُمُ الۡمُسۡلِمِیۡنَ ۬ۙ مِنۡ قَبۡلُ وَ فِیۡ ہٰذَا  لِیَکُوۡنَ الرَّسُوۡلُ شَہِیۡدًا عَلَیۡکُمۡ وَ تَکُوۡنُوۡا شُہَدَآءَ عَلَی النَّاسِ ۚۖ فَاَقِیۡمُوا الصَّلٰوۃَ  وَ اٰتُوا الزَّکٰوۃَ  وَ اعۡتَصِمُوۡا بِاللّٰہِ ؕ ہُوَ مَوۡلٰىکُمۡ ۚ فَنِعۡمَ الۡمَوۡلٰی وَ نِعۡمَ النَّصِیۡرُ ﴿٪۷۸﴾ 
