یٰۤاَیُّہَا الَّذِیۡنَ اٰمَنُوۡۤا اَوۡفُوۡا بِالۡعُقُوۡدِ ۬ؕ اُحِلَّتۡ لَکُمۡ بَہِیۡمَۃُ الۡاَنۡعَامِ  اِلَّا مَا یُتۡلٰی عَلَیۡکُمۡ غَیۡرَ مُحِلِّی الصَّیۡدِ وَ اَنۡتُمۡ حُرُمٌ ؕ اِنَّ اللّٰہَ  یَحۡکُمُ مَا یُرِیۡدُ ﴿۱﴾ 
یٰۤاَیُّہَا الَّذِیۡنَ اٰمَنُوۡا لَا تُحِلُّوۡا شَعَآئِرَ اللّٰہِ وَ لَا الشَّہۡرَ الۡحَرَامَ وَ لَا الۡہَدۡیَ وَ لَا الۡقَلَآئِدَ وَ لَاۤ  آٰمِّیۡنَ الۡبَیۡتَ الۡحَرَامَ یَبۡتَغُوۡنَ فَضۡلًا مِّنۡ رَّبِّہِمۡ وَ رِضۡوَانًا ؕ وَ اِذَا حَلَلۡتُمۡ فَاصۡطَادُوۡا ؕ وَ لَا یَجۡرِمَنَّکُمۡ شَنَاٰنُ قَوۡمٍ اَنۡ صَدُّوۡکُمۡ عَنِ الۡمَسۡجِدِ الۡحَرَامِ اَنۡ تَعۡتَدُوۡا ۘ وَ تَعَاوَنُوۡا عَلَی الۡبِرِّ وَ التَّقۡوٰی ۪ وَ لَا تَعَاوَنُوۡا عَلَی الۡاِثۡمِ وَ الۡعُدۡوَانِ ۪ وَ اتَّقُوا اللّٰہَ ؕ اِنَّ اللّٰہَ  شَدِیۡدُ الۡعِقَابِ ﴿۲﴾ 
حُرِّمَتۡ عَلَیۡکُمُ الۡمَیۡتَۃُ وَ الدَّمُ وَ لَحۡمُ الۡخِنۡزِیۡرِ وَ مَاۤ اُہِلَّ لِغَیۡرِ اللّٰہِ بِہٖ وَ الۡمُنۡخَنِقَۃُ وَ الۡمَوۡقُوۡذَۃُ وَ الۡمُتَرَدِّیَۃُ وَ النَّطِیۡحَۃُ وَ مَاۤ اَکَلَ السَّبُعُ اِلَّا مَا ذَکَّیۡتُمۡ ۟ وَ مَا ذُبِحَ عَلَی النُّصُبِ وَ اَنۡ تَسۡتَقۡسِمُوۡا بِالۡاَزۡلَامِ ؕ ذٰلِکُمۡ فِسۡقٌ ؕ اَلۡیَوۡمَ  یَئِسَ الَّذِیۡنَ  کَفَرُوۡا مِنۡ دِیۡنِکُمۡ فَلَا تَخۡشَوۡہُمۡ وَ اخۡشَوۡنِ ؕ اَلۡیَوۡمَ اَکۡمَلۡتُ لَکُمۡ دِیۡنَکُمۡ وَ اَتۡمَمۡتُ عَلَیۡکُمۡ نِعۡمَتِیۡ وَ رَضِیۡتُ لَکُمُ الۡاِسۡلَامَ دِیۡنًا ؕ فَمَنِ اضۡطُرَّ فِیۡ مَخۡمَصَۃٍ غَیۡرَ   مُتَجَانِفٍ لِّاِثۡمٍ ۙ فَاِنَّ اللّٰہَ غَفُوۡرٌ  رَّحِیۡمٌ ﴿۳﴾ 
یَسۡـَٔلُوۡنَکَ مَاذَاۤ  اُحِلَّ لَہُمۡ ؕ قُلۡ اُحِلَّ لَکُمُ الطَّیِّبٰتُ ۙ وَ مَا عَلَّمۡتُمۡ مِّنَ الۡجَوَارِحِ مُکَلِّبِیۡنَ تُعَلِّمُوۡنَہُنَّ مِمَّا عَلَّمَکُمُ اللّٰہُ ۫ فَکُلُوۡا مِمَّاۤ  اَمۡسَکۡنَ عَلَیۡکُمۡ وَ اذۡکُرُوا اسۡمَ اللّٰہِ عَلَیۡہِ ۪ وَ اتَّقُوا اللّٰہَ ؕ اِنَّ اللّٰہَ سَرِیۡعُ  الۡحِسَابِ ﴿۴﴾ 
اَلۡیَوۡمَ اُحِلَّ لَکُمُ الطَّیِّبٰتُ ؕ وَ طَعَامُ الَّذِیۡنَ اُوۡتُوا الۡکِتٰبَ حِلٌّ لَّکُمۡ ۪ وَ طَعَامُکُمۡ حِلٌّ لَّہُمۡ ۫ وَ الۡمُحۡصَنٰتُ مِنَ الۡمُؤۡمِنٰتِ وَ الۡمُحۡصَنٰتُ مِنَ الَّذِیۡنَ اُوۡتُوا الۡکِتٰبَ مِنۡ قَبۡلِکُمۡ اِذَاۤ اٰتَیۡتُمُوۡہُنَّ اُجُوۡرَہُنَّ مُحۡصِنِیۡنَ غَیۡرَ مُسٰفِحِیۡنَ وَ لَا مُتَّخِذِیۡۤ اَخۡدَانٍ ؕ وَ مَنۡ یَّکۡفُرۡ بِالۡاِیۡمَانِ فَقَدۡ حَبِطَ عَمَلُہٗ ۫ وَ ہُوَ فِی الۡاٰخِرَۃِ  مِنَ  الۡخٰسِرِیۡنَ ٪﴿۵﴾
یٰۤاَیُّہَا الَّذِیۡنَ اٰمَنُوۡۤا اِذَا قُمۡتُمۡ  اِلَی الصَّلٰوۃِ فَاغۡسِلُوۡا وُجُوۡہَکُمۡ وَ اَیۡدِیَکُمۡ  اِلَی الۡمَرَافِقِ وَ امۡسَحُوۡا بِرُءُوۡسِکُمۡ وَ اَرۡجُلَکُمۡ  اِلَی الۡکَعۡبَیۡنِ ؕ وَ اِنۡ کُنۡتُمۡ جُنُبًا فَاطَّہَّرُوۡا ؕ وَ اِنۡ کُنۡتُمۡ مَّرۡضٰۤی اَوۡ عَلٰی سَفَرٍ  اَوۡ جَآءَ  اَحَدٌ مِّنۡکُمۡ  مِّنَ الۡغَآئِطِ اَوۡ لٰمَسۡتُمُ النِّسَآءَ  فَلَمۡ  تَجِدُوۡا مَآءً فَتَیَمَّمُوۡا صَعِیۡدًا طَیِّبًا فَامۡسَحُوۡا بِوُجُوۡہِکُمۡ وَ اَیۡدِیۡکُمۡ مِّنۡہُ ؕ مَا یُرِیۡدُ اللّٰہُ لِیَجۡعَلَ عَلَیۡکُمۡ مِّنۡ حَرَجٍ وَّ لٰکِنۡ یُّرِیۡدُ لِیُطَہِّرَکُمۡ وَ لِیُتِمَّ نِعۡمَتَہٗ عَلَیۡکُمۡ لَعَلَّکُمۡ تَشۡکُرُوۡنَ ﴿۶﴾ 
وَ اذۡکُرُوۡا نِعۡمَۃَ اللّٰہِ عَلَیۡکُمۡ وَ مِیۡثَاقَہُ الَّذِیۡ وَاثَقَکُمۡ  بِہٖۤ ۙ اِذۡ  قُلۡتُمۡ سَمِعۡنَا وَ اَطَعۡنَا ۫ وَ اتَّقُوا اللّٰہَ ؕ اِنَّ  اللّٰہَ عَلِیۡمٌۢ  بِذَاتِ الصُّدُوۡرِ ﴿۷﴾ 
یٰۤاَیُّہَا الَّذِیۡنَ اٰمَنُوۡا کُوۡنُوۡا قَوّٰمِیۡنَ لِلّٰہِ شُہَدَآءَ  بِالۡقِسۡطِ ۫ وَ لَا  یَجۡرِمَنَّکُمۡ شَنَاٰنُ قَوۡمٍ عَلٰۤی اَلَّا تَعۡدِلُوۡا ؕ اِعۡدِلُوۡا ۟ ہُوَ  اَقۡرَبُ لِلتَّقۡوٰی ۫ وَ اتَّقُوا اللّٰہَ ؕ اِنَّ  اللّٰہَ  خَبِیۡرٌۢ  بِمَا تَعۡمَلُوۡنَ ﴿۸﴾ 
وَعَدَ اللّٰہُ الَّذِیۡنَ اٰمَنُوۡا وَ عَمِلُوا الصّٰلِحٰتِ ۙ لَہُمۡ مَّغۡفِرَۃٌ وَّ اَجۡرٌ عَظِیۡمٌ ﴿۹﴾ 
وَ الَّذِیۡنَ کَفَرُوۡا وَ کَذَّبُوۡا بِاٰیٰتِنَاۤ  اُولٰٓئِکَ  اَصۡحٰبُ  الۡجَحِیۡمِ ﴿۱۰﴾ 
یٰۤاَیُّہَا الَّذِیۡنَ اٰمَنُوا اذۡکُرُوۡا نِعۡمَتَ اللّٰہِ عَلَیۡکُمۡ اِذۡ ہَمَّ قَوۡمٌ اَنۡ یَّبۡسُطُوۡۤا اِلَیۡکُمۡ  اَیۡدِیَہُمۡ فَکَفَّ اَیۡدِیَہُمۡ عَنۡکُمۡ ۚ وَ اتَّقُوا اللّٰہَ ؕ وَ عَلَی اللّٰہِ فَلۡیَتَوَکَّلِ الۡمُؤۡمِنُوۡنَ ﴿٪۱۱﴾ 
وَ لَقَدۡ اَخَذَ اللّٰہُ مِیۡثَاقَ بَنِیۡۤ  اِسۡرَآءِیۡلَ ۚ وَ بَعَثۡنَا مِنۡہُمُ اثۡنَیۡ عَشَرَ نَقِیۡبًا ؕ وَ قَالَ اللّٰہُ  اِنِّیۡ مَعَکُمۡ ؕ لَئِنۡ اَقَمۡتُمُ الصَّلٰوۃَ وَ اٰتَیۡتُمُ الزَّکٰوۃَ  وَ اٰمَنۡتُمۡ بِرُسُلِیۡ وَ عَزَّرۡتُمُوۡہُمۡ وَ اَقۡرَضۡتُمُ اللّٰہَ قَرۡضًا حَسَنًا لَّاُکَفِّرَنَّ عَنۡکُمۡ سَیِّاٰتِکُمۡ وَ لَاُدۡخِلَنَّکُمۡ جَنّٰتٍ تَجۡرِیۡ مِنۡ تَحۡتِہَا الۡاَنۡہٰرُ ۚ فَمَنۡ کَفَرَ بَعۡدَ ذٰلِکَ مِنۡکُمۡ  فَقَدۡ ضَلَّ سَوَآءَ  السَّبِیۡلِ ﴿۱۲﴾ 
فَبِمَا نَقۡضِہِمۡ مِّیۡثَاقَہُمۡ لَعَنّٰہُمۡ وَ جَعَلۡنَا قُلُوۡبَہُمۡ قٰسِیَۃً ۚ یُحَرِّفُوۡنَ الۡکَلِمَ عَنۡ مَّوَاضِعِہٖ ۙ وَ نَسُوۡا حَظًّا مِّمَّا ذُکِّرُوۡا بِہٖ ۚ وَ لَا تَزَالُ تَطَّلِعُ عَلٰی خَآئِنَۃٍ مِّنۡہُمۡ اِلَّا قَلِیۡلًا مِّنۡہُمۡ فَاعۡفُ عَنۡہُمۡ وَ اصۡفَحۡ ؕ اِنَّ اللّٰہَ یُحِبُّ الۡمُحۡسِنِیۡنَ ﴿۱۳﴾ 
وَ مِنَ الَّذِیۡنَ قَالُوۡۤا اِنَّا نَصٰرٰۤی اَخَذۡنَا مِیۡثَاقَہُمۡ فَنَسُوۡا حَظًّا مِّمَّا ذُکِّرُوۡا بِہٖ ۪ فَاَغۡرَیۡنَا بَیۡنَہُمُ الۡعَدَاوَۃَ وَ الۡبَغۡضَآءَ اِلٰی یَوۡمِ الۡقِیٰمَۃِ ؕ وَ سَوۡفَ یُنَبِّئُہُمُ اللّٰہُ  بِمَا  کَانُوۡا یَصۡنَعُوۡنَ ﴿۱۴﴾ 
یٰۤاَہۡلَ الۡکِتٰبِ قَدۡ جَآءَکُمۡ  رَسُوۡلُنَا یُبَیِّنُ لَکُمۡ کَثِیۡرًا مِّمَّا کُنۡتُمۡ تُخۡفُوۡنَ مِنَ الۡکِتٰبِ وَ یَعۡفُوۡا عَنۡ کَثِیۡرٍ ۬ؕ قَدۡ جَآءَکُمۡ  مِّنَ اللّٰہِ  نُوۡرٌ وَّ کِتٰبٌ مُّبِیۡنٌ ﴿ۙ۱۵﴾ 
یَّہۡدِیۡ بِہِ اللّٰہُ مَنِ اتَّبَعَ رِضۡوَانَہٗ سُبُلَ السَّلٰمِ  وَ یُخۡرِجُہُمۡ مِّنَ الظُّلُمٰتِ اِلَی النُّوۡرِ بِاِذۡنِہٖ وَ یَہۡدِیۡہِمۡ  اِلٰی  صِرَاطٍ مُّسۡتَقِیۡمٍ ﴿۱۶﴾ 
لَقَدۡ کَفَرَ الَّذِیۡنَ قَالُوۡۤا اِنَّ اللّٰہَ ہُوَ الۡمَسِیۡحُ ابۡنُ مَرۡیَمَ ؕ قُلۡ  فَمَنۡ یَّمۡلِکُ مِنَ اللّٰہِ شَیۡئًا اِنۡ اَرَادَ  اَنۡ  یُّہۡلِکَ الۡمَسِیۡحَ ابۡنَ مَرۡیَمَ وَ اُمَّہٗ وَ مَنۡ فِی الۡاَرۡضِ جَمِیۡعًا ؕ وَ لِلّٰہِ مُلۡکُ السَّمٰوٰتِ وَ الۡاَرۡضِ وَ مَا بَیۡنَہُمَا ؕ یَخۡلُقُ مَا یَشَآءُ ؕ وَ اللّٰہُ  عَلٰی  کُلِّ  شَیۡءٍ  قَدِیۡرٌ ﴿۱۷﴾ 
وَ قَالَتِ الۡیَہُوۡدُ  وَ النَّصٰرٰی  نَحۡنُ اَبۡنٰٓؤُا اللّٰہِ وَ اَحِبَّآؤُہٗ ؕ قُلۡ فَلِمَ یُعَذِّبُکُمۡ  بِذُنُوۡبِکُمۡ ؕ بَلۡ  اَنۡتُمۡ  بَشَرٌ مِّمَّنۡ خَلَقَ ؕ یَغۡفِرُ لِمَنۡ یَّشَآءُ وَ یُعَذِّبُ مَنۡ یَّشَآءُ ؕ وَ لِلّٰہِ مُلۡکُ السَّمٰوٰتِ وَ الۡاَرۡضِ وَ مَا بَیۡنَہُمَا ۫ وَ اِلَیۡہِ الۡمَصِیۡرُ ﴿۱۸﴾ 
یٰۤاَہۡلَ الۡکِتٰبِ قَدۡ جَآءَکُمۡ  رَسُوۡلُنَا یُبَیِّنُ لَکُمۡ عَلٰی  فَتۡرَۃٍ  مِّنَ الرُّسُلِ اَنۡ تَقُوۡلُوۡا مَا جَآءَنَا مِنۡۢ بَشِیۡرٍ وَّ لَا نَذِیۡرٍ ۫ فَقَدۡ جَآءَکُمۡ بَشِیۡرٌ وَّ نَذِیۡرٌ ؕ وَ اللّٰہُ  عَلٰی  کُلِّ  شَیۡءٍ  قَدِیۡرٌ ﴿٪۱۹﴾ 
وَ  اِذۡ قَالَ مُوۡسٰی لِقَوۡمِہٖ یٰقَوۡمِ اذۡکُرُوۡا نِعۡمَۃَ اللّٰہِ عَلَیۡکُمۡ اِذۡ جَعَلَ فِیۡکُمۡ اَنۡۢبِیَآءَ وَ جَعَلَکُمۡ مُّلُوۡکًا ٭ۖ وَّ اٰتٰىکُمۡ مَّا لَمۡ یُؤۡتِ اَحَدًا مِّنَ الۡعٰلَمِیۡنَ  ﴿۲۰﴾
یٰقَوۡمِ ادۡخُلُوا الۡاَرۡضَ الۡمُقَدَّسَۃَ الَّتِیۡ  کَتَبَ اللّٰہُ لَکُمۡ وَ لَا تَرۡتَدُّوۡا عَلٰۤی  اَدۡبَارِکُمۡ فَتَنۡقَلِبُوۡا خٰسِرِیۡنَ ﴿۲۱﴾ 
قَالُوۡا یٰمُوۡسٰۤی اِنَّ فِیۡہَا قَوۡمًا جَبَّارِیۡنَ ٭ۖ وَ اِنَّا لَنۡ نَّدۡخُلَہَا حَتّٰی یَخۡرُجُوۡا مِنۡہَا ۚ فَاِنۡ  یَّخۡرُجُوۡا مِنۡہَا فَاِنَّا دٰخِلُوۡنَ ﴿۲۲﴾ 
قَالَ رَجُلٰنِ مِنَ الَّذِیۡنَ یَخَافُوۡنَ اَنۡعَمَ اللّٰہُ  عَلَیۡہِمَا ادۡخُلُوۡا عَلَیۡہِمُ  الۡبَابَ ۚ فَاِذَا دَخَلۡتُمُوۡہُ  فَاِنَّکُمۡ غٰلِبُوۡنَ ۬ۚ وَ عَلَی اللّٰہِ  فَتَوَکَّلُوۡۤا اِنۡ کُنۡتُمۡ  مُّؤۡمِنِیۡنَ ﴿۲۳﴾ 
قَالُوۡا یٰمُوۡسٰۤی اِنَّا لَنۡ  نَّدۡخُلَہَاۤ  اَبَدًا مَّا دَامُوۡا فِیۡہَا فَاذۡہَبۡ اَنۡتَ وَ رَبُّکَ فَقَاتِلَاۤ  اِنَّا ہٰہُنَا قٰعِدُوۡنَ ﴿۲۴﴾ 
قَالَ رَبِّ اِنِّیۡ  لَاۤ  اَمۡلِکُ اِلَّا نَفۡسِیۡ وَ اَخِیۡ فَافۡرُقۡ بَیۡنَنَا وَ بَیۡنَ الۡقَوۡمِ الۡفٰسِقِیۡنَ ﴿۲۵﴾ 
قَالَ فَاِنَّہَا مُحَرَّمَۃٌ عَلَیۡہِمۡ اَرۡبَعِیۡنَ سَنَۃً ۚ یَتِیۡہُوۡنَ فِی الۡاَرۡضِ ؕ فَلَا تَاۡسَ عَلَی الۡقَوۡمِ الۡفٰسِقِیۡنَ ﴿٪۲۶﴾ 
وَ اتۡلُ عَلَیۡہِمۡ  نَبَاَ ابۡنَیۡ اٰدَمَ  بِالۡحَقِّ ۘ اِذۡ قَرَّبَا قُرۡبَانًا فَتُقُبِّلَ مِنۡ اَحَدِہِمَا وَ لَمۡ یُتَقَبَّلۡ مِنَ الۡاٰخَرِ ؕ قَالَ لَاَقۡتُلَنَّکَ ؕ قَالَ  اِنَّمَا یَتَقَبَّلُ  اللّٰہُ مِنَ  الۡمُتَّقِیۡنَ ﴿۲۷﴾ 
لَئِنۡۢ بَسَطۡتَّ اِلَیَّ یَدَکَ لِتَقۡتُلَنِیۡ مَاۤ   اَنَا بِبَاسِطٍ یَّدِیَ اِلَیۡکَ لِاَقۡتُلَکَ ۚ اِنِّیۡۤ  اَخَافُ اللّٰہَ  رَبَّ  الۡعٰلَمِیۡنَ ﴿۲۸﴾ 
اِنِّیۡۤ  اُرِیۡدُ اَنۡ تَبُوۡٓاَ بِاِثۡمِیۡ وَ اِثۡمِکَ فَتَکُوۡنَ مِنۡ اَصۡحٰبِ النَّارِ ۚ وَ ذٰلِکَ جَزٰٓؤُا الظّٰلِمِیۡنَ ﴿ۚ۲۹﴾ 
فَطَوَّعَتۡ  لَہٗ نَفۡسُہٗ  قَتۡلَ اَخِیۡہِ فَقَتَلَہٗ  فَاَصۡبَحَ  مِنَ  الۡخٰسِرِیۡنَ ﴿۳۰﴾ 
فَبَعَثَ اللّٰہُ غُرَابًا یَّبۡحَثُ فِی الۡاَرۡضِ لِیُرِیَہٗ کَیۡفَ یُوَارِیۡ سَوۡءَۃَ اَخِیۡہِ ؕ قَالَ یٰوَیۡلَتٰۤی اَعَجَزۡتُ اَنۡ  اَکُوۡنَ مِثۡلَ  ہٰذَا الۡغُرَابِ فَاُوَارِیَ سَوۡءَۃَ اَخِیۡ ۚ فَاَصۡبَحَ  مِنَ  النّٰدِمِیۡنَ ﴿ۚۛۙ۳۱﴾
مِنۡ اَجۡلِ ذٰلِکَ ۚۛؔ کَتَبۡنَا عَلٰی بَنِیۡۤ اِسۡرَآءِیۡلَ اَنَّہٗ مَنۡ قَتَلَ نَفۡسًۢا بِغَیۡرِ نَفۡسٍ اَوۡ فَسَادٍ فِی الۡاَرۡضِ فَکَاَنَّمَا قَتَلَ النَّاسَ جَمِیۡعًا ؕ وَ مَنۡ  اَحۡیَاہَا فَکَاَنَّمَاۤ اَحۡیَا النَّاسَ جَمِیۡعًا ؕ وَ لَقَدۡ جَآءَتۡہُمۡ رُسُلُنَا بِالۡبَیِّنٰتِ ۫ ثُمَّ  اِنَّ کَثِیۡرًا مِّنۡہُمۡ بَعۡدَ ذٰلِکَ فِی الۡاَرۡضِ لَمُسۡرِفُوۡنَ ﴿۳۲﴾ 
اِنَّمَا جَزٰٓؤُا الَّذِیۡنَ یُحَارِبُوۡنَ اللّٰہَ وَ رَسُوۡلَہٗ وَ یَسۡعَوۡنَ فِی الۡاَرۡضِ فَسَادًا اَنۡ یُّقَتَّلُوۡۤا اَوۡ یُصَلَّبُوۡۤا اَوۡ تُقَطَّعَ اَیۡدِیۡہِمۡ وَ اَرۡجُلُہُمۡ مِّنۡ خِلَافٍ اَوۡ یُنۡفَوۡا مِنَ  الۡاَرۡضِ ؕ ذٰلِکَ لَہُمۡ خِزۡیٌ فِی الدُّنۡیَا وَ لَہُمۡ فِی الۡاٰخِرَۃِ عَذَابٌ عَظِیۡمٌ ﴿ۙ۳۳﴾
اِلَّا الَّذِیۡنَ تَابُوۡا مِنۡ قَبۡلِ اَنۡ تَقۡدِرُوۡا عَلَیۡہِمۡ ۚ فَاعۡلَمُوۡۤا اَنَّ اللّٰہَ غَفُوۡرٌ رَّحِیۡمٌ ﴿٪۳۴﴾ 
یٰۤاَیُّہَا الَّذِیۡنَ اٰمَنُوا اتَّقُوا اللّٰہَ وَ ابۡتَغُوۡۤا اِلَیۡہِ الۡوَسِیۡلَۃَ وَ جَاہِدُوۡا فِیۡ سَبِیۡلِہٖ  لَعَلَّکُمۡ  تُفۡلِحُوۡنَ ﴿۳۵﴾ 
اِنَّ الَّذِیۡنَ کَفَرُوۡا لَوۡ اَنَّ لَہُمۡ مَّا فِی الۡاَرۡضِ جَمِیۡعًا وَّ مِثۡلَہٗ مَعَہٗ لِیَفۡتَدُوۡا بِہٖ مِنۡ عَذَابِ یَوۡمِ الۡقِیٰمَۃِ مَا تُقُبِّلَ مِنۡہُمۡ ۚ وَ لَہُمۡ عَذَابٌ  اَلِیۡمٌ ﴿۳۶﴾ 
یُرِیۡدُوۡنَ اَنۡ یَّخۡرُجُوۡا مِنَ النَّارِ وَ مَا ہُمۡ بِخٰرِجِیۡنَ مِنۡہَا ۫ وَ لَہُمۡ عَذَابٌ مُّقِیۡمٌ ﴿۳۷﴾ 
وَ السَّارِقُ وَ السَّارِقَۃُ فَاقۡطَعُوۡۤا اَیۡدِیَہُمَا جَزَآءًۢ بِمَا کَسَبَا نَکَالًا مِّنَ  اللّٰہِ ؕ وَ اللّٰہُ عَزِیۡزٌ  حَکِیۡمٌ ﴿۳۸﴾ 
فَمَنۡ تَابَ مِنۡۢ بَعۡدِ ظُلۡمِہٖ وَ اَصۡلَحَ  فَاِنَّ اللّٰہَ یَتُوۡبُ عَلَیۡہِ ؕ اِنَّ اللّٰہَ غَفُوۡرٌ رَّحِیۡمٌ ﴿۳۹﴾ 
اَلَمۡ تَعۡلَمۡ اَنَّ اللّٰہَ لَہٗ مُلۡکُ السَّمٰوٰتِ وَ الۡاَرۡضِ ؕ یُعَذِّبُ مَنۡ یَّشَآءُ  وَ یَغۡفِرُ لِمَنۡ یَّشَآءُ ؕ وَ اللّٰہُ عَلٰی کُلِّ شَیۡءٍ قَدِیۡرٌ ﴿۴۰﴾ 
یٰۤاَیُّہَا الرَّسُوۡلُ لَا یَحۡزُنۡکَ الَّذِیۡنَ یُسَارِعُوۡنَ فِی الۡکُفۡرِ مِنَ الَّذِیۡنَ قَالُوۡۤا اٰمَنَّا بِاَفۡوَاہِہِمۡ وَ لَمۡ تُؤۡمِنۡ قُلُوۡبُہُمۡ ۚۛ وَ مِنَ الَّذِیۡنَ ہَادُوۡا ۚۛ سَمّٰعُوۡنَ لِلۡکَذِبِ سَمّٰعُوۡنَ لِقَوۡمٍ اٰخَرِیۡنَ ۙ  لَمۡ  یَاۡتُوۡکَ ؕ یُحَرِّفُوۡنَ الۡکَلِمَ مِنۡۢ بَعۡدِ مَوَاضِعِہٖ ۚ یَقُوۡلُوۡنَ اِنۡ اُوۡتِیۡتُمۡ ہٰذَا فَخُذُوۡہُ وَ اِنۡ لَّمۡ تُؤۡتَوۡہُ فَاحۡذَرُوۡا ؕ وَ مَنۡ یُّرِدِ اللّٰہُ فِتۡنَتَہٗ فَلَنۡ تَمۡلِکَ لَہٗ  مِنَ اللّٰہِ  شَیۡئًا ؕ اُولٰٓئِکَ الَّذِیۡنَ لَمۡ یُرِدِ اللّٰہُ اَنۡ یُّطَہِّرَ قُلُوۡبَہُمۡ ؕ لَہُمۡ فِی الدُّنۡیَا خِزۡیٌ ۚۖ وَّ لَہُمۡ فِی الۡاٰخِرَۃِ  عَذَابٌ  عَظِیۡمٌ ﴿۴۱﴾ 
سَمّٰعُوۡنَ لِلۡکَذِبِ اَکّٰلُوۡنَ لِلسُّحۡتِ ؕ فَاِنۡ جَآءُوۡکَ فَاحۡکُمۡ بَیۡنَہُمۡ اَوۡ اَعۡرِضۡ عَنۡہُمۡ ۚ وَ اِنۡ تُعۡرِضۡ عَنۡہُمۡ فَلَنۡ یَّضُرُّوۡکَ شَیۡئًا ؕ وَ اِنۡ حَکَمۡتَ فَاحۡکُمۡ بَیۡنَہُمۡ بِالۡقِسۡطِ ؕ اِنَّ اللّٰہَ یُحِبُّ الۡمُقۡسِطِیۡنَ ﴿۴۲﴾
وَ کَیۡفَ یُحَکِّمُوۡنَکَ وَ عِنۡدَہُمُ  التَّوۡرٰىۃُ فِیۡہَا حُکۡمُ اللّٰہِ ثُمَّ یَتَوَلَّوۡنَ مِنۡۢ بَعۡدِ ذٰلِکَ ؕ وَ مَاۤ  اُولٰٓئِکَ بِالۡمُؤۡمِنِیۡنَ ﴿٪۴۳﴾ 
اِنَّاۤ  اَنۡزَلۡنَا التَّوۡرٰىۃَ فِیۡہَا ہُدًی وَّ نُوۡرٌ ۚ یَحۡکُمُ بِہَا النَّبِیُّوۡنَ الَّذِیۡنَ اَسۡلَمُوۡا لِلَّذِیۡنَ ہَادُوۡا وَ الرَّبّٰنِیُّوۡنَ وَ الۡاَحۡبَارُ بِمَا اسۡتُحۡفِظُوۡا مِنۡ کِتٰبِ اللّٰہِ وَ کَانُوۡا عَلَیۡہِ شُہَدَآءَ ۚ فَلَا تَخۡشَوُا النَّاسَ وَ اخۡشَوۡنِ  وَ لَا  تَشۡتَرُوۡا بِاٰیٰتِیۡ ثَمَنًا قَلِیۡلًا ؕ وَ مَنۡ لَّمۡ یَحۡکُمۡ بِمَاۤ اَنۡزَلَ اللّٰہُ فَاُولٰٓئِکَ ہُمُ الۡکٰفِرُوۡنَ ﴿۴۴﴾ 
وَ کَتَبۡنَا عَلَیۡہِمۡ فِیۡہَاۤ  اَنَّ النَّفۡسَ بِالنَّفۡسِ ۙ وَ الۡعَیۡنَ بِالۡعَیۡنِ وَ الۡاَنۡفَ بِالۡاَنۡفِ وَ الۡاُذُنَ بِالۡاُذُنِ وَ السِّنَّ بِالسِّنِّ ۙ وَ الۡجُرُوۡحَ قِصَاصٌ ؕ فَمَنۡ تَصَدَّقَ بِہٖ فَہُوَ کَفَّارَۃٌ  لَّہٗ  ؕ وَ مَنۡ لَّمۡ یَحۡکُمۡ بِمَاۤ اَنۡزَلَ اللّٰہُ فَاُولٰٓئِکَ ہُمُ الظّٰلِمُوۡنَ ﴿۴۵﴾ 
وَ قَفَّیۡنَا عَلٰۤی اٰثَارِہِمۡ بِعِیۡسَی ابۡنِ مَرۡیَمَ مُصَدِّقًا لِّمَا بَیۡنَ یَدَیۡہِ مِنَ التَّوۡرٰىۃِ ۪ وَ اٰتَیۡنٰہُ الۡاِنۡجِیۡلَ فِیۡہِ ہُدًی وَّ نُوۡرٌ ۙ وَّ مُصَدِّقًا لِّمَا بَیۡنَ  یَدَیۡہِ مِنَ التَّوۡرٰىۃِ وَ ہُدًی وَّ مَوۡعِظَۃً  لِّلۡمُتَّقِیۡنَ ﴿ؕ۴۶﴾ 
وَ لۡیَحۡکُمۡ اَہۡلُ  الۡاِنۡجِیۡلِ بِمَاۤ  اَنۡزَلَ اللّٰہُ فِیۡہِ ؕ وَ مَنۡ لَّمۡ یَحۡکُمۡ بِمَاۤ اَنۡزَلَ اللّٰہُ فَاُولٰٓئِکَ ہُمُ  الۡفٰسِقُوۡنَ ﴿۴۷﴾ 
وَ اَنۡزَلۡنَاۤ اِلَیۡکَ الۡکِتٰبَ بِالۡحَقِّ مُصَدِّقًا لِّمَا بَیۡنَ یَدَیۡہِ مِنَ الۡکِتٰبِ وَ مُہَیۡمِنًا عَلَیۡہِ فَاحۡکُمۡ  بَیۡنَہُمۡ بِمَاۤ اَنۡزَلَ اللّٰہُ وَ لَا تَتَّبِعۡ اَہۡوَآءَہُمۡ عَمَّا جَآءَکَ مِنَ الۡحَقِّ ؕ لِکُلٍّ جَعَلۡنَا مِنۡکُمۡ شِرۡعَۃً وَّ مِنۡہَاجًا ؕ وَ لَوۡ  شَآءَ اللّٰہُ لَجَعَلَکُمۡ اُمَّۃً وَّاحِدَۃً  وَّ لٰکِنۡ  لِّیَبۡلُوَکُمۡ فِیۡ مَاۤ اٰتٰىکُمۡ فَاسۡتَبِقُوا الۡخَیۡرٰتِ ؕ اِلَی اللّٰہِ مَرۡجِعُکُمۡ جَمِیۡعًا فَیُنَبِّئُکُمۡ بِمَا کُنۡتُمۡ  فِیۡہِ  تَخۡتَلِفُوۡنَ ﴿ۙ۴۸﴾ 
وَ اَنِ احۡکُمۡ بَیۡنَہُمۡ  بِمَاۤ اَنۡزَلَ اللّٰہُ  وَ لَا تَتَّبِعۡ اَہۡوَآءَہُمۡ وَ احۡذَرۡہُمۡ اَنۡ یَّفۡتِنُوۡکَ عَنۡۢ بَعۡضِ مَاۤ اَنۡزَلَ اللّٰہُ اِلَیۡکَ ؕ فَاِنۡ تَوَلَّوۡا فَاعۡلَمۡ اَنَّمَا یُرِیۡدُ اللّٰہُ اَنۡ یُّصِیۡبَہُمۡ بِبَعۡضِ ذُنُوۡبِہِمۡ ؕ وَ اِنَّ  کَثِیۡرًا مِّنَ  النَّاسِ  لَفٰسِقُوۡنَ ﴿۴۹﴾ 
اَفَحُکۡمَ الۡجَاہِلِیَّۃِ یَبۡغُوۡنَ ؕ وَ مَنۡ اَحۡسَنُ مِنَ اللّٰہِ حُکۡمًا لِّقَوۡمٍ یُّوۡقِنُوۡنَ ﴿٪۵۰﴾ 
یٰۤاَیُّہَا الَّذِیۡنَ اٰمَنُوۡا لَا تَتَّخِذُوا الۡیَہُوۡدَ وَ النَّصٰرٰۤی اَوۡلِیَآءَ ۘؔ بَعۡضُہُمۡ اَوۡلِیَآءُ بَعۡضٍ ؕ وَ مَنۡ  یَّتَوَلَّہُمۡ  مِّنۡکُمۡ فَاِنَّہٗ  مِنۡہُمۡ ؕ اِنَّ اللّٰہَ  لَا یَہۡدِی الۡقَوۡمَ  الظّٰلِمِیۡنَ ﴿۵۱﴾ 
فَتَرَی الَّذِیۡنَ فِیۡ قُلُوۡبِہِمۡ مَّرَضٌ یُّسَارِعُوۡنَ فِیۡہِمۡ یَقُوۡلُوۡنَ نَخۡشٰۤی اَنۡ تُصِیۡبَنَا دَآئِرَۃٌ ؕ فَعَسَی اللّٰہُ اَنۡ یَّاۡتِیَ بِالۡفَتۡحِ اَوۡ اَمۡرٍ مِّنۡ عِنۡدِہٖ فَیُصۡبِحُوۡا عَلٰی  مَاۤ  اَسَرُّوۡا  فِیۡۤ   اَنۡفُسِہِمۡ نٰدِمِیۡنَ ﴿ؕ۵۲﴾ 
وَ یَقُوۡلُ الَّذِیۡنَ اٰمَنُوۡۤا اَہٰۤؤُلَآءِ الَّذِیۡنَ اَقۡسَمُوۡا بِاللّٰہِ جَہۡدَ اَیۡمَانِہِمۡ ۙ اِنَّہُمۡ لَمَعَکُمۡ ؕ حَبِطَتۡ اَعۡمَالُہُمۡ فَاَصۡبَحُوۡا خٰسِرِیۡنَ ﴿۵۳﴾ 
یٰۤاَیُّہَا الَّذِیۡنَ اٰمَنُوۡا مَنۡ یَّرۡتَدَّ مِنۡکُمۡ عَنۡ دِیۡنِہٖ فَسَوۡفَ یَاۡتِی اللّٰہُ بِقَوۡمٍ یُّحِبُّہُمۡ وَ یُحِبُّوۡنَہٗۤ ۙ اَذِلَّۃٍ عَلَی الۡمُؤۡمِنِیۡنَ اَعِزَّۃٍ عَلَی الۡکٰفِرِیۡنَ ۫ یُجَاہِدُوۡنَ فِیۡ سَبِیۡلِ اللّٰہِ وَ لَا  یَخَافُوۡنَ لَوۡمَۃَ لَآئِمٍ ؕ ذٰلِکَ فَضۡلُ اللّٰہِ یُؤۡتِیۡہِ مَنۡ  یَّشَآءُ ؕ وَ اللّٰہُ  وَاسِعٌ  عَلِیۡمٌ ﴿۵۴﴾ 
اِنَّمَا وَلِیُّکُمُ اللّٰہُ وَ رَسُوۡلُہٗ وَ الَّذِیۡنَ اٰمَنُوا الَّذِیۡنَ یُقِیۡمُوۡنَ الصَّلٰوۃَ وَ یُؤۡتُوۡنَ  الزَّکٰوۃَ  وَ ہُمۡ  رٰکِعُوۡنَ ﴿۵۵﴾ 
وَ مَنۡ یَّتَوَلَّ اللّٰہَ وَ رَسُوۡلَہٗ وَ الَّذِیۡنَ اٰمَنُوۡا فَاِنَّ حِزۡبَ اللّٰہِ ہُمُ الۡغٰلِبُوۡنَ ﴿٪۵۶﴾ 
یٰۤاَیُّہَا الَّذِیۡنَ اٰمَنُوۡا لَا  تَتَّخِذُوا الَّذِیۡنَ اتَّخَذُوۡا دِیۡنَکُمۡ ہُزُوًا وَّ لَعِبًا مِّنَ الَّذِیۡنَ اُوۡتُوا الۡکِتٰبَ مِنۡ قَبۡلِکُمۡ وَ الۡکُفَّارَ اَوۡلِیَآءَ ۚ وَ اتَّقُوا  اللّٰہَ  اِنۡ  کُنۡتُمۡ  مُّؤۡمِنِیۡنَ ﴿۵۷﴾ 
وَ اِذَا نَادَیۡتُمۡ  اِلَی الصَّلٰوۃِ  اتَّخَذُوۡہَا ہُزُوًا وَّ لَعِبًا ؕ ذٰلِکَ بِاَنَّہُمۡ قَوۡمٌ لَّا یَعۡقِلُوۡنَ ﴿۵۸﴾ 
قُلۡ یٰۤاَہۡلَ الۡکِتٰبِ ہَلۡ تَنۡقِمُوۡنَ مِنَّاۤ اِلَّاۤ اَنۡ اٰمَنَّا بِاللّٰہِ وَ مَاۤ  اُنۡزِلَ اِلَیۡنَا وَ مَاۤ  اُنۡزِلَ مِنۡ قَبۡلُ ۙ وَ اَنَّ  اَکۡثَرَکُمۡ  فٰسِقُوۡنَ ﴿۵۹﴾ 
قُلۡ ہَلۡ اُنَبِّئُکُمۡ بِشَرٍّ مِّنۡ ذٰلِکَ مَثُوۡبَۃً عِنۡدَ اللّٰہِ ؕ مَنۡ لَّعَنَہُ اللّٰہُ وَ غَضِبَ عَلَیۡہِ وَ جَعَلَ مِنۡہُمُ الۡقِرَدَۃَ  وَ الۡخَنَازِیۡرَ وَ عَبَدَ الطَّاغُوۡتَ ؕ اُولٰٓئِکَ شَرٌّ مَّکَانًا وَّ  اَضَلُّ  عَنۡ  سَوَآءِ السَّبِیۡلِ ﴿۶۰﴾ 
وَ اِذَا جَآءُوۡکُمۡ قَالُوۡۤا اٰمَنَّا وَ قَدۡ دَّخَلُوۡا بِالۡکُفۡرِ  وَ ہُمۡ  قَدۡ خَرَجُوۡا بِہٖ ؕ وَ اللّٰہُ  اَعۡلَمُ  بِمَا کَانُوۡا یَکۡتُمُوۡنَ ﴿۶۱﴾ 
وَ تَرٰی کَثِیۡرًا مِّنۡہُمۡ یُسَارِعُوۡنَ فِی الۡاِثۡمِ وَ الۡعُدۡوَانِ وَ اَکۡلِہِمُ السُّحۡتَ ؕ لَبِئۡسَ مَا کَانُوۡا یَعۡمَلُوۡنَ ﴿۶۲﴾ 
لَوۡ لَا یَنۡہٰہُمُ الرَّبّٰنِیُّوۡنَ وَ الۡاَحۡبَارُ عَنۡ قَوۡلِہِمُ الۡاِثۡمَ وَ اَکۡلِہِمُ السُّحۡتَ ؕ لَبِئۡسَ مَا  کَانُوۡا  یَصۡنَعُوۡنَ ﴿۶۳﴾ 
وَ قَالَتِ الۡیَہُوۡدُ یَدُ اللّٰہِ مَغۡلُوۡلَۃٌ ؕ غُلَّتۡ اَیۡدِیۡہِمۡ وَ لُعِنُوۡا بِمَا قَالُوۡا ۘ بَلۡ یَدٰہُ مَبۡسُوۡطَتٰنِ ۙ یُنۡفِقُ  کَیۡفَ یَشَآءُ ؕ وَ لَیَزِیۡدَنَّ کَثِیۡرًا مِّنۡہُمۡ مَّاۤ  اُنۡزِلَ  اِلَیۡکَ مِنۡ رَّبِّکَ طُغۡیَانًا وَّ کُفۡرًا ؕ وَ اَلۡقَیۡنَا بَیۡنَہُمُ الۡعَدَاوَۃَ وَ الۡبَغۡضَآءَ  اِلٰی یَوۡمِ الۡقِیٰمَۃِ ؕ کُلَّمَاۤ  اَوۡقَدُوۡا  نَارًا لِّلۡحَرۡبِ اَطۡفَاَہَا اللّٰہُ ۙ وَ یَسۡعَوۡنَ فِی الۡاَرۡضِ فَسَادًا ؕ وَ اللّٰہُ  لَا یُحِبُّ الۡمُفۡسِدِیۡنَ ﴿۶۴﴾ 
وَ لَوۡ  اَنَّ  اَہۡلَ الۡکِتٰبِ اٰمَنُوۡا وَ اتَّقَوۡا لَکَفَّرۡنَا عَنۡہُمۡ سَیِّاٰتِہِمۡ وَ لَاَدۡخَلۡنٰہُمۡ  جَنّٰتِ النَّعِیۡمِ ﴿۶۵﴾ 
وَ لَوۡ اَنَّہُمۡ اَقَامُوا التَّوۡرٰىۃَ وَ الۡاِنۡجِیۡلَ وَ مَاۤ  اُنۡزِلَ اِلَیۡہِمۡ  مِّنۡ رَّبِّہِمۡ لَاَکَلُوۡا مِنۡ فَوۡقِہِمۡ وَ مِنۡ تَحۡتِ اَرۡجُلِہِمۡ ؕ مِنۡہُمۡ اُمَّۃٌ  مُّقۡتَصِدَۃٌ ؕ وَ کَثِیۡرٌ  مِّنۡہُمۡ سَآءَ مَا یَعۡمَلُوۡنَ ﴿٪۶۶﴾ 
یٰۤاَیُّہَا الرَّسُوۡلُ بَلِّغۡ  مَاۤ اُنۡزِلَ اِلَیۡکَ  مِنۡ رَّبِّکَ ؕ وَ  اِنۡ لَّمۡ تَفۡعَلۡ فَمَا بَلَّغۡتَ رِسَالَتَہٗ ؕ وَ اللّٰہُ یَعۡصِمُکَ مِنَ النَّاسِ ؕ اِنَّ اللّٰہَ  لَا یَہۡدِی الۡقَوۡمَ الۡکٰفِرِیۡنَ ﴿۶۷﴾ 
قُلۡ یٰۤاَہۡلَ الۡکِتٰبِ لَسۡتُمۡ عَلٰی شَیۡءٍ حَتّٰی تُقِیۡمُوا التَّوۡرٰىۃَ وَ الۡاِنۡجِیۡلَ وَ مَاۤ  اُنۡزِلَ اِلَیۡکُمۡ مِّنۡ رَّبِّکُمۡ ؕ وَ لَیَزِیۡدَنَّ  کَثِیۡرًا مِّنۡہُمۡ مَّاۤ  اُنۡزِلَ  اِلَیۡکَ مِنۡ رَّبِّکَ طُغۡیَانًا وَّ کُفۡرًا ۚ فَلَا تَاۡسَ عَلَی الۡقَوۡمِ  الۡکٰفِرِیۡنَ ﴿۶۸﴾ 
اِنَّ الَّذِیۡنَ اٰمَنُوۡا وَ الَّذِیۡنَ ہَادُوۡا وَ الصّٰبِـُٔوۡنَ وَ النَّصٰرٰی مَنۡ اٰمَنَ بِاللّٰہِ وَ الۡیَوۡمِ الۡاٰخِرِ  وَ عَمِلَ صَالِحًا فَلَا خَوۡفٌ عَلَیۡہِمۡ  وَ لَا  ہُمۡ  یَحۡزَنُوۡنَ ﴿۶۹﴾ 
لَقَدۡ اَخَذۡنَا مِیۡثَاقَ بَنِیۡۤ  اِسۡرَآءِیۡلَ وَ اَرۡسَلۡنَاۤ  اِلَیۡہِمۡ رُسُلًا ؕ کُلَّمَا جَآءَہُمۡ رَسُوۡلٌۢ بِمَا لَا تَہۡوٰۤی اَنۡفُسُہُمۡ ۙ فَرِیۡقًا کَذَّبُوۡا وَ فَرِیۡقًا یَّقۡتُلُوۡنَ ﴿٭۷۰﴾ 
وَ حَسِبُوۡۤا اَلَّا تَکُوۡنَ فِتۡنَۃٌ فَعَمُوۡا وَ صَمُّوۡا ثُمَّ تَابَ اللّٰہُ عَلَیۡہِمۡ ثُمَّ عَمُوۡا وَ صَمُّوۡا کَثِیۡرٌ مِّنۡہُمۡ ؕ وَ اللّٰہُ بَصِیۡرٌۢ بِمَا یَعۡمَلُوۡنَ ﴿۷۱﴾ 
لَقَدۡ کَفَرَ الَّذِیۡنَ قَالُوۡۤا اِنَّ اللّٰہَ ہُوَ الۡمَسِیۡحُ ابۡنُ مَرۡیَمَ ؕ وَ قَالَ الۡمَسِیۡحُ یٰبَنِیۡۤ  اِسۡرَآءِیۡلَ اعۡبُدُوا اللّٰہَ رَبِّیۡ وَ رَبَّکُمۡ ؕ اِنَّہٗ مَنۡ یُّشۡرِکۡ بِاللّٰہِ فَقَدۡ حَرَّمَ اللّٰہُ عَلَیۡہِ الۡجَنَّۃَ وَ مَاۡوٰىہُ النَّارُ ؕ وَ مَا لِلظّٰلِمِیۡنَ مِنۡ اَنۡصَارٍ ﴿۷۲﴾ 
لَقَدۡ کَفَرَ الَّذِیۡنَ قَالُوۡۤا اِنَّ اللّٰہَ ثَالِثُ ثَلٰثَۃٍ ۘ وَ مَا مِنۡ  اِلٰہٍ  اِلَّاۤ اِلٰہٌ  وَّاحِدٌ ؕ وَ اِنۡ لَّمۡ یَنۡتَہُوۡا عَمَّا یَقُوۡلُوۡنَ لَیَمَسَّنَّ الَّذِیۡنَ  کَفَرُوۡا مِنۡہُمۡ  عَذَابٌ اَلِیۡمٌ ﴿۷۳﴾ 
اَفَلَا یَتُوۡبُوۡنَ اِلَی اللّٰہِ وَ یَسۡتَغۡفِرُوۡنَہٗ ؕ وَ اللّٰہُ غَفُوۡرٌ  رَّحِیۡمٌ ﴿۷۴﴾ 
مَا الۡمَسِیۡحُ ابۡنُ مَرۡیَمَ  اِلَّا رَسُوۡلٌ ۚ قَدۡ خَلَتۡ مِنۡ قَبۡلِہِ الرُّسُلُ ؕ وَ اُمُّہٗ صِدِّیۡقَۃٌ ؕ کَانَا یَاۡکُلٰنِ الطَّعَامَ ؕ اُنۡظُرۡ کَیۡفَ نُبَیِّنُ لَہُمُ الۡاٰیٰتِ ثُمَّ انۡظُرۡ اَنّٰی یُؤۡفَکُوۡنَ ﴿۷۵﴾ 
قُلۡ اَتَعۡبُدُوۡنَ مِنۡ دُوۡنِ اللّٰہِ مَا لَا یَمۡلِکُ لَکُمۡ ضَرًّا وَّ لَا  نَفۡعًا ؕ وَ اللّٰہُ ہُوَ  السَّمِیۡعُ  الۡعَلِیۡمُ ﴿۷۶﴾ 
قُلۡ یٰۤاَہۡلَ الۡکِتٰبِ لَا تَغۡلُوۡا فِیۡ دِیۡنِکُمۡ غَیۡرَ  الۡحَقِّ وَ لَا  تَتَّبِعُوۡۤا اَہۡوَآءَ  قَوۡمٍ قَدۡ ضَلُّوۡا مِنۡ قَبۡلُ وَ اَضَلُّوۡا کَثِیۡرًا وَّ ضَلُّوۡا عَنۡ سَوَآءِ السَّبِیۡلِ ﴿٪۷۷﴾ 
لُعِنَ الَّذِیۡنَ کَفَرُوۡا مِنۡۢ بَنِیۡۤ  اِسۡرَآءِیۡلَ عَلٰی لِسَانِ دَاوٗدَ  وَ عِیۡسَی ابۡنِ مَرۡیَمَ ؕ ذٰلِکَ بِمَا عَصَوۡا وَّ کَانُوۡا یَعۡتَدُوۡنَ ﴿۷۸﴾ 
کَانُوۡا لَا یَتَنَاہَوۡنَ عَنۡ مُّنۡکَرٍ فَعَلُوۡہُ ؕ لَبِئۡسَ مَا کَانُوۡا یَفۡعَلُوۡنَ ﴿۷۹﴾ 
تَرٰی کَثِیۡرًا مِّنۡہُمۡ یَتَوَلَّوۡنَ الَّذِیۡنَ کَفَرُوۡا ؕ لَبِئۡسَ مَا قَدَّمَتۡ لَہُمۡ اَنۡفُسُہُمۡ اَنۡ سَخِطَ اللّٰہُ عَلَیۡہِمۡ وَ فِی الۡعَذَابِ ہُمۡ خٰلِدُوۡنَ ﴿۸۰﴾ 
وَ لَوۡ کَانُوۡا یُؤۡمِنُوۡنَ بِاللّٰہِ وَ النَّبِیِّ  وَ مَاۤ اُنۡزِلَ اِلَیۡہِ مَا اتَّخَذُوۡہُمۡ اَوۡلِیَآءَ وَ لٰکِنَّ  کَثِیۡرًا  مِّنۡہُمۡ  فٰسِقُوۡنَ ﴿۸۱﴾ 
لَتَجِدَنَّ اَشَدَّ النَّاسِ عَدَاوَۃً لِّلَّذِیۡنَ اٰمَنُوا الۡیَہُوۡدَ وَ الَّذِیۡنَ اَشۡرَکُوۡا ۚ وَ لَتَجِدَنَّ  اَقۡرَبَہُمۡ مَّوَدَّۃً  لِّلَّذِیۡنَ اٰمَنُوا الَّذِیۡنَ قَالُوۡۤا اِنَّا نَصٰرٰی ؕ ذٰلِکَ بِاَنَّ مِنۡہُمۡ قِسِّیۡسِیۡنَ وَ رُہۡبَانًا وَّ اَنَّہُمۡ لَا یَسۡتَکۡبِرُوۡنَ ﴿۸۲﴾ 
وَ  اِذَا سَمِعُوۡا مَاۤ  اُنۡزِلَ  اِلَی الرَّسُوۡلِ تَرٰۤی اَعۡیُنَہُمۡ تَفِیۡضُ مِنَ  الدَّمۡعِ مِمَّا عَرَفُوۡا مِنَ الۡحَقِّ ۚ یَقُوۡلُوۡنَ رَبَّنَاۤ  اٰمَنَّا فَاکۡتُبۡنَا مَعَ الشّٰہِدِیۡنَ ﴿۸۳﴾ 
وَ مَا لَنَا لَا نُؤۡمِنُ بِاللّٰہِ وَ مَا جَآءَنَا مِنَ الۡحَقِّ ۙ وَ نَطۡمَعُ اَنۡ  یُّدۡخِلَنَا رَبُّنَا مَعَ  الۡقَوۡمِ الصّٰلِحِیۡنَ ﴿۸۴﴾ 
فَاَثَابَہُمُ اللّٰہُ بِمَا قَالُوۡا جَنّٰتٍ تَجۡرِیۡ مِنۡ تَحۡتِہَا الۡاَنۡہٰرُ خٰلِدِیۡنَ فِیۡہَا ؕ وَ ذٰلِکَ  جَزَآءُ   الۡمُحۡسِنِیۡنَ ﴿۸۵﴾  
وَ الَّذِیۡنَ کَفَرُوۡا وَ کَذَّبُوۡا بِاٰیٰتِنَاۤ  اُولٰٓئِکَ  اَصۡحٰبُ  الۡجَحِیۡمِ ﴿٪۸۶﴾  
یٰۤاَیُّہَا الَّذِیۡنَ اٰمَنُوۡا لَا تُحَرِّمُوۡا طَیِّبٰتِ مَاۤ  اَحَلَّ اللّٰہُ لَکُمۡ وَ لَا تَعۡتَدُوۡا ؕ اِنَّ اللّٰہَ لَا  یُحِبُّ الۡمُعۡتَدِیۡنَ ﴿۸۷﴾   
وَ کُلُوۡا مِمَّا رَزَقَکُمُ اللّٰہُ حَلٰلًا طَیِّبًا ۪ وَّ اتَّقُوا اللّٰہَ الَّذِیۡۤ اَنۡتُمۡ بِہٖ مُؤۡمِنُوۡنَ ﴿۸۸﴾ 
لَا یُؤَاخِذُکُمُ اللّٰہُ بِاللَّغۡوِ فِیۡۤ  اَیۡمَانِکُمۡ وَ لٰکِنۡ یُّؤَاخِذُکُمۡ بِمَا عَقَّدۡتُّمُ الۡاَیۡمَانَ ۚ فَکَفَّارَتُہٗۤ  اِطۡعَامُ عَشَرَۃِ مَسٰکِیۡنَ مِنۡ اَوۡسَطِ مَا تُطۡعِمُوۡنَ اَہۡلِیۡکُمۡ  اَوۡ  کِسۡوَتُہُمۡ اَوۡ تَحۡرِیۡرُ  رَقَبَۃٍ ؕ فَمَنۡ لَّمۡ یَجِدۡ فَصِیَامُ ثَلٰثَۃِ اَیَّامٍ ؕ ذٰلِکَ کَفَّارَۃُ  اَیۡمَانِکُمۡ  اِذَا حَلَفۡتُمۡ ؕ وَ احۡفَظُوۡۤا اَیۡمَانَکُمۡ ؕ کَذٰلِکَ یُبَیِّنُ اللّٰہُ لَکُمۡ  اٰیٰتِہٖ لَعَلَّکُمۡ  تَشۡکُرُوۡنَ ﴿۸۹﴾ 
یٰۤاَیُّہَا الَّذِیۡنَ اٰمَنُوۡۤا اِنَّمَا الۡخَمۡرُ وَ الۡمَیۡسِرُ وَ الۡاَنۡصَابُ وَ الۡاَزۡلَامُ رِجۡسٌ مِّنۡ  عَمَلِ الشَّیۡطٰنِ فَاجۡتَنِبُوۡہُ  لَعَلَّکُمۡ  تُفۡلِحُوۡنَ ﴿۹۰﴾ 
اِنَّمَا یُرِیۡدُ الشَّیۡطٰنُ اَنۡ  یُّوۡقِعَ  بَیۡنَکُمُ الۡعَدَاوَۃَ  وَ الۡبَغۡضَآءَ  فِی الۡخَمۡرِ وَ الۡمَیۡسِرِ وَ یَصُدَّکُمۡ عَنۡ ذِکۡرِ اللّٰہِ وَ عَنِ الصَّلٰوۃِ ۚ فَہَلۡ اَنۡتُمۡ مُّنۡتَہُوۡنَ ﴿۹۱﴾ 
وَ اَطِیۡعُوا اللّٰہَ وَ اَطِیۡعُوا الرَّسُوۡلَ وَ احۡذَرُوۡا ۚ فَاِنۡ تَوَلَّیۡتُمۡ فَاعۡلَمُوۡۤا اَنَّمَا عَلٰی  رَسُوۡلِنَا الۡبَلٰغُ  الۡمُبِیۡنُ ﴿۹۲﴾ 
لَیۡسَ عَلَی الَّذِیۡنَ اٰمَنُوۡا وَ عَمِلُوا الصّٰلِحٰتِ جُنَاحٌ فِیۡمَا طَعِمُوۡۤا اِذَا مَا اتَّقَوۡا وَّ اٰمَنُوۡا وَ عَمِلُوا الصّٰلِحٰتِ ثُمَّ اتَّقَوۡا وَّ اٰمَنُوۡا ثُمَّ اتَّقَوۡا وَّ اَحۡسَنُوۡا ؕ وَ اللّٰہُ یُحِبُّ الۡمُحۡسِنِیۡنَ ﴿٪۹۳﴾ 
یٰۤاَیُّہَا الَّذِیۡنَ اٰمَنُوۡا  لَیَبۡلُوَنَّکُمُ  اللّٰہُ بِشَیۡءٍ مِّنَ الصَّیۡدِ تَنَالُہٗۤ  اَیۡدِیۡکُمۡ وَ رِمَاحُکُمۡ لِیَعۡلَمَ اللّٰہُ مَنۡ یَّخَافُہٗ بِالۡغَیۡبِ ۚ فَمَنِ اعۡتَدٰی بَعۡدَ ذٰلِکَ فَلَہٗ عَذَابٌ اَلِیۡمٌ ﴿۹۴﴾ 
یٰۤاَیُّہَا الَّذِیۡنَ اٰمَنُوۡا لَا تَقۡتُلُوا الصَّیۡدَ وَ اَنۡتُمۡ حُرُمٌ ؕ وَ مَنۡ قَتَلَہٗ مِنۡکُمۡ مُّتَعَمِّدًا فَجَزَآءٌ  مِّثۡلُ  مَا قَتَلَ مِنَ النَّعَمِ یَحۡکُمُ بِہٖ ذَوَا عَدۡلٍ مِّنۡکُمۡ ہَدۡیًۢا بٰلِغَ الۡکَعۡبَۃِ  اَوۡ کَفَّارَۃٌ  طَعَامُ مَسٰکِیۡنَ اَوۡ عَدۡلُ ذٰلِکَ صِیَامًا لِّیَذُوۡقَ وَبَالَ اَمۡرِہٖ ؕ عَفَا اللّٰہُ عَمَّا سَلَفَ ؕ وَ مَنۡ عَادَ فَیَنۡتَقِمُ اللّٰہُ مِنۡہُ ؕ وَ اللّٰہُ  عَزِیۡزٌ  ذُو انۡتِقَامٍ ﴿۹۵﴾ 
اُحِلَّ لَکُمۡ صَیۡدُ الۡبَحۡرِ وَ طَعَامُہٗ مَتَاعًا لَّکُمۡ وَ لِلسَّیَّارَۃِ ۚ وَ حُرِّمَ عَلَیۡکُمۡ صَیۡدُ الۡبَرِّ مَا دُمۡتُمۡ حُرُمًا ؕ وَ اتَّقُوا  اللّٰہَ الَّذِیۡۤ  اِلَیۡہِ  تُحۡشَرُوۡنَ ﴿۹۶﴾ 
جَعَلَ اللّٰہُ الۡکَعۡبَۃَ الۡبَیۡتَ الۡحَرَامَ  قِیٰمًا لِّلنَّاسِ وَ الشَّہۡرَ الۡحَرَامَ وَ الۡہَدۡیَ وَ الۡقَلَآئِدَ ؕ ذٰلِکَ  لِتَعۡلَمُوۡۤا  اَنَّ اللّٰہَ یَعۡلَمُ مَا فِی السَّمٰوٰتِ وَ مَا فِی الۡاَرۡضِ  وَ  اَنَّ اللّٰہَ بِکُلِّ  شَیۡءٍ عَلِیۡمٌ ﴿۹۷﴾ 
اِعۡلَمُوۡۤا اَنَّ اللّٰہَ شَدِیۡدُ الۡعِقَابِ وَ اَنَّ اللّٰہَ غَفُوۡرٌ  رَّحِیۡمٌ ﴿ؕ۹۸﴾ 
مَا عَلَی الرَّسُوۡلِ  اِلَّا الۡبَلٰغُ ؕ وَ اللّٰہُ یَعۡلَمُ  مَا تُبۡدُوۡنَ وَ مَا تَکۡتُمُوۡنَ ﴿۹۹﴾ 
قُلۡ لَّا یَسۡتَوِی الۡخَبِیۡثُ وَ الطَّیِّبُ وَ لَوۡ اَعۡجَبَکَ کَثۡرَۃُ الۡخَبِیۡثِ ۚ فَاتَّقُوا اللّٰہَ یٰۤاُولِی الۡاَلۡبَابِ لَعَلَّکُمۡ تُفۡلِحُوۡنَ ﴿۱۰۰﴾٪ 
یٰۤاَیُّہَا الَّذِیۡنَ اٰمَنُوۡا لَا تَسۡـَٔلُوۡا عَنۡ اَشۡیَآءَ  اِنۡ تُبۡدَ لَکُمۡ  تَسُؤۡکُمۡ ۚ وَ  اِنۡ تَسۡـَٔلُوۡا عَنۡہَا حِیۡنَ یُنَزَّلُ الۡقُرۡاٰنُ تُبۡدَ لَکُمۡ ؕ عَفَا اللّٰہُ عَنۡہَا ؕ وَ اللّٰہُ غَفُوۡرٌ حَلِیۡمٌ ﴿۱۰۱﴾ 
قَدۡ سَاَلَہَا قَوۡمٌ مِّنۡ قَبۡلِکُمۡ ثُمَّ اَصۡبَحُوۡا بِہَا کٰفِرِیۡنَ ﴿۱۰۲﴾ 
مَا جَعَلَ اللّٰہُ مِنۡۢ بَحِیۡرَۃٍ  وَّ لَا سَآئِبَۃٍ  وَّ لَا وَصِیۡلَۃٍ وَّ لَا حَامٍ ۙ وَّ لٰکِنَّ الَّذِیۡنَ کَفَرُوۡا یَفۡتَرُوۡنَ عَلَی اللّٰہِ الۡکَذِبَ ؕ وَ اَکۡثَرُہُمۡ لَا یَعۡقِلُوۡنَ ﴿۱۰۳﴾ 
وَ اِذَا قِیۡلَ لَہُمۡ تَعَالَوۡا  اِلٰی  مَاۤ اَنۡزَلَ اللّٰہُ وَ اِلَی الرَّسُوۡلِ قَالُوۡا حَسۡبُنَا مَا وَجَدۡنَا عَلَیۡہِ اٰبَآءَنَا ؕ اَوَ  لَوۡ کَانَ اٰبَآؤُہُمۡ لَا یَعۡلَمُوۡنَ شَیۡئًا وَّ لَا یَہۡتَدُوۡنَ ﴿۱۰۴﴾ 
یٰۤاَیُّہَا الَّذِیۡنَ اٰمَنُوۡا عَلَیۡکُمۡ اَنۡفُسَکُمۡ ۚ  لَا یَضُرُّکُمۡ مَّنۡ ضَلَّ  اِذَا اہۡتَدَیۡتُمۡ ؕ اِلَی اللّٰہِ مَرۡجِعُکُمۡ  جَمِیۡعًا فَیُنَبِّئُکُمۡ بِمَا کُنۡتُمۡ تَعۡمَلُوۡنَ ﴿۱۰۵﴾ 
یٰۤاَیُّہَا الَّذِیۡنَ اٰمَنُوۡا شَہَادَۃُ بَیۡنِکُمۡ اِذَا حَضَرَ اَحَدَکُمُ الۡمَوۡتُ حِیۡنَ الۡوَصِیَّۃِ اثۡنٰنِ ذَوَا عَدۡلٍ مِّنۡکُمۡ  اَوۡ اٰخَرٰنِ مِنۡ غَیۡرِکُمۡ  اِنۡ اَنۡتُمۡ ضَرَبۡتُمۡ فِی الۡاَرۡضِ فَاَصَابَتۡکُمۡ مُّصِیۡبَۃُ الۡمَوۡتِ ؕ تَحۡبِسُوۡنَہُمَا مِنۡۢ بَعۡدِ الصَّلٰوۃِ  فَیُقۡسِمٰنِ بِاللّٰہِ  اِنِ ارۡتَبۡتُمۡ لَا نَشۡتَرِیۡ بِہٖ ثَمَنًا وَّ لَوۡ  کَانَ ذَا قُرۡبٰی ۙ وَ لَا نَکۡتُمُ شَہَادَۃَ ۙ اللّٰہِ  اِنَّاۤ  اِذًا لَّمِنَ الۡاٰثِمِیۡنَ ﴿۱۰۶﴾ 
فَاِنۡ عُثِرَ عَلٰۤی اَنَّہُمَا اسۡتَحَقَّاۤ اِثۡمًا فَاٰخَرٰنِ یَقُوۡمٰنِ مَقَامَہُمَا مِنَ  الَّذِیۡنَ اسۡتَحَقَّ عَلَیۡہِمُ الۡاَوۡلَیٰنِ فَیُقۡسِمٰنِ بِاللّٰہِ لَشَہَادَتُنَاۤ  اَحَقُّ مِنۡ شَہَادَتِہِمَا وَ مَا اعۡتَدَیۡنَاۤ ۫ۖ اِنَّاۤ اِذًا لَّمِنَ الظّٰلِمِیۡنَ ﴿۱۰۷﴾ 
ذٰلِکَ اَدۡنٰۤی اَنۡ یَّاۡتُوۡا بِالشَّہَادَۃِ عَلٰی وَجۡہِہَاۤ  اَوۡ  یَخَافُوۡۤا  اَنۡ  تُرَدَّ  اَیۡمَانٌۢ  بَعۡدَ اَیۡمَانِہِمۡ ؕ وَ اتَّقُوا اللّٰہَ وَ اسۡمَعُوۡا ؕ وَ اللّٰہُ   لَا یَہۡدِی الۡقَوۡمَ  الۡفٰسِقِیۡنَ ﴿۱۰۸﴾٪ 
یَوۡمَ یَجۡمَعُ اللّٰہُ الرُّسُلَ فَیَقُوۡلُ مَا ذَاۤ اُجِبۡتُمۡ ؕ قَالُوۡا لَا عِلۡمَ  لَنَا ؕ اِنَّکَ اَنۡتَ عَلَّامُ  الۡغُیُوۡبِ ﴿۱۰۹﴾
اِذۡ قَالَ اللّٰہُ یٰعِیۡسَی ابۡنَ مَرۡیَمَ اذۡکُرۡ نِعۡمَتِیۡ عَلَیۡکَ وَ عَلٰی وَالِدَتِکَ ۘ اِذۡ اَیَّدۡتُّکَ بِرُوۡحِ الۡقُدُسِ ۟ تُکَلِّمُ  النَّاسَ فِی الۡمَہۡدِ وَ کَہۡلًا ۚ وَ اِذۡ عَلَّمۡتُکَ الۡکِتٰبَ وَ الۡحِکۡمَۃَ وَ التَّوۡرٰىۃَ وَ الۡاِنۡجِیۡلَ ۚ وَ اِذۡ تَخۡلُقُ مِنَ الطِّیۡنِ کَہَیۡـَٔۃِ الطَّیۡرِ بِاِذۡنِیۡ فَتَنۡفُخُ فِیۡہَا فَتَکُوۡنُ طَیۡرًۢا بِاِذۡنِیۡ وَ تُبۡرِیٴُ الۡاَکۡمَہَ وَ الۡاَبۡرَصَ بِاِذۡنِیۡ ۚ وَ اِذۡ تُخۡرِجُ الۡمَوۡتٰی بِاِذۡنِیۡ ۚ وَ اِذۡ کَفَفۡتُ بَنِیۡۤ  اِسۡرَآءِیۡلَ عَنۡکَ اِذۡ جِئۡتَہُمۡ بِالۡبَیِّنٰتِ فَقَالَ الَّذِیۡنَ کَفَرُوۡا مِنۡہُمۡ  اِنۡ ہٰذَاۤ  اِلَّا سِحۡرٌ مُّبِیۡنٌ ﴿۱۱۰﴾ 
وَ  اِذۡ  اَوۡحَیۡتُ اِلَی الۡحَوَارِیّٖنَ اَنۡ اٰمِنُوۡا بِیۡ  وَ بِرَسُوۡلِیۡ ۚ قَالُوۡۤا اٰمَنَّا وَ اشۡہَدۡ  بِاَنَّنَا مُسۡلِمُوۡنَ ﴿۱۱۱﴾ 
اِذۡ   قَالَ الۡحَوَارِیُّوۡنَ یٰعِیۡسَی ابۡنَ  مَرۡیَمَ ہَلۡ یَسۡتَطِیۡعُ رَبُّکَ اَنۡ یُّنَزِّلَ عَلَیۡنَا مَآئِدَۃً مِّنَ السَّمَآءِ ؕ قَالَ اتَّقُوا اللّٰہَ اِنۡ  کُنۡتُمۡ  مُّؤۡمِنِیۡنَ ﴿۱۱۲﴾ 
قَالُوۡا نُرِیۡدُ اَنۡ  نَّاۡکُلَ  مِنۡہَا وَ تَطۡمَئِنَّ قُلُوۡبُنَا وَ نَعۡلَمَ اَنۡ قَدۡ صَدَقۡتَنَا وَ نَکُوۡنَ عَلَیۡہَا مِنَ الشّٰہِدِیۡنَ ﴿۱۱۳﴾ 
قَالَ عِیۡسَی ابۡنُ مَرۡیَمَ اللّٰہُمَّ رَبَّنَاۤ اَنۡزِلۡ عَلَیۡنَا مَآئِدَۃً مِّنَ السَّمَآءِ تَکُوۡنُ لَنَا عِیۡدًا لِّاَوَّلِنَا وَ اٰخِرِنَا وَ اٰیَۃً مِّنۡکَ ۚ وَ ارۡزُقۡنَا وَ اَنۡتَ خَیۡرُ الرّٰزِقِیۡنَ ﴿۱۱۴﴾ 
قَالَ اللّٰہُ اِنِّیۡ مُنَزِّلُہَا عَلَیۡکُمۡ ۚ فَمَنۡ یَّکۡفُرۡ بَعۡدُ مِنۡکُمۡ فَاِنِّیۡۤ  اُعَذِّبُہٗ عَذَابًا  لَّاۤ   اُعَذِّبُہٗۤ  اَحَدًا مِّنَ الۡعٰلَمِیۡنَ ﴿۱۱۵﴾٪ 
وَ  اِذۡ قَالَ اللّٰہُ یٰعِیۡسَی ابۡنَ مَرۡیَمَ  ءَاَنۡتَ قُلۡتَ لِلنَّاسِ اتَّخِذُوۡنِیۡ وَ اُمِّیَ  اِلٰہَیۡنِ مِنۡ دُوۡنِ اللّٰہِ ؕ قَالَ سُبۡحٰنَکَ مَا یَکُوۡنُ لِیۡۤ  اَنۡ اَقُوۡلَ مَا لَیۡسَ لِیۡ ٭ بِحَقٍّ ؕ؃ اِنۡ کُنۡتُ قُلۡتُہٗ فَقَدۡ عَلِمۡتَہٗ ؕ تَعۡلَمُ  مَا فِیۡ نَفۡسِیۡ وَ لَاۤ اَعۡلَمُ مَا فِیۡ نَفۡسِکَ ؕ اِنَّکَ اَنۡتَ عَلَّامُ  الۡغُیُوۡبِ ﴿۱۱۶﴾ 
مَا قُلۡتُ لَہُمۡ اِلَّا مَاۤ اَمَرۡتَنِیۡ بِہٖۤ اَنِ اعۡبُدُوا اللّٰہَ رَبِّیۡ وَ رَبَّکُمۡ ۚ وَ کُنۡتُ عَلَیۡہِمۡ  شَہِیۡدًا مَّا دُمۡتُ فِیۡہِمۡ ۚ فَلَمَّا تَوَفَّیۡتَنِیۡ  کُنۡتَ اَنۡتَ الرَّقِیۡبَ عَلَیۡہِمۡ ؕ وَ  اَنۡتَ عَلٰی کُلِّ  شَیۡءٍ  شَہِیۡدٌ ﴿۱۱۷﴾ 
اِنۡ تُعَذِّبۡہُمۡ فَاِنَّہُمۡ عِبَادُکَ ۚ وَ اِنۡ تَغۡفِرۡ لَہُمۡ فَاِنَّکَ اَنۡتَ الۡعَزِیۡزُ الۡحَکِیۡمُ ﴿۱۱۸﴾ 
قَالَ اللّٰہُ ہٰذَا یَوۡمُ یَنۡفَعُ الصّٰدِقِیۡنَ صِدۡقُہُمۡ ؕ لَہُمۡ جَنّٰتٌ تَجۡرِیۡ مِنۡ   تَحۡتِہَا الۡاَنۡہٰرُ  خٰلِدِیۡنَ  فِیۡہَاۤ  اَبَدًا ؕ رَضِیَ اللّٰہُ عَنۡہُمۡ وَ رَضُوۡا عَنۡہُ ؕ ذٰلِکَ الۡفَوۡزُ الۡعَظِیۡمُ ﴿۱۱۹﴾ 
لِلّٰہِ مُلۡکُ السَّمٰوٰتِ وَ الۡاَرۡضِ وَ مَا فِیۡہِنَّ ؕ وَ ہُوَ  عَلٰی  کُلِّ  شَیۡءٍ  قَدِیۡرٌ ﴿۱۲۰﴾٪ 
