وَالذّٰرِیٰتِ ذَرۡوًا ۙ﴿۱﴾ 
فَالۡحٰمِلٰتِ  وِقۡرًا ۙ﴿۲﴾ 
فَالۡجٰرِیٰتِ  یُسۡرًا ۙ﴿۳﴾ 
فَالۡمُقَسِّمٰتِ  اَمۡرًا ۙ﴿۴﴾ 
اِنَّمَا تُوۡعَدُوۡنَ  لَصَادِقٌ ۙ﴿۵﴾ 
وَّ  اِنَّ  الدِّیۡنَ لَوَاقِعٌ ؕ﴿۶﴾ 
وَ السَّمَآءِ   ذَاتِ  الۡحُبُکِ ۙ﴿۷﴾ 
اِنَّکُمۡ   لَفِیۡ  قَوۡلٍ  مُّخۡتَلِفٍ ۙ﴿۸﴾ 
یُّؤۡفَکُ عَنۡہُ  مَنۡ  اُفِکَ ﴿ؕ۹﴾ 
قُتِلَ  الۡخَرّٰصُوۡنَ ﴿ۙ۱۰﴾ 
الَّذِیۡنَ ہُمۡ  فِیۡ  غَمۡرَۃٍ  سَاہُوۡنَ ﴿ۙ۱۱﴾ 
یَسۡـَٔلُوۡنَ  اَیَّانَ  یَوۡمُ  الدِّیۡنِ ﴿ؕ۱۲﴾ 
یَوۡمَ ہُمۡ عَلَی النَّارِ یُفۡتَنُوۡنَ ﴿۱۳﴾ 
ذُوۡقُوۡا فِتۡنَتَکُمۡ ؕ ہٰذَا الَّذِیۡ  کُنۡتُمۡ بِہٖ تَسۡتَعۡجِلُوۡنَ ﴿۱۴﴾ 
اِنَّ  الۡمُتَّقِیۡنَ فِیۡ جَنّٰتٍ وَّ عُیُوۡنٍ ﴿ۙ۱۵﴾ 
اٰخِذِیۡنَ مَاۤ  اٰتٰہُمۡ  رَبُّہُمۡ ؕ اِنَّہُمۡ کَانُوۡا قَبۡلَ  ذٰلِکَ  مُحۡسِنِیۡنَ ﴿ؕ۱۶﴾ 
کَانُوۡا  قَلِیۡلًا مِّنَ الَّیۡلِ مَا یَہۡجَعُوۡنَ ﴿۱۷﴾ 
وَ  بِالۡاَسۡحَارِ ہُمۡ  یَسۡتَغۡفِرُوۡنَ ﴿۱۸﴾ 
وَ فِیۡۤ  اَمۡوَالِہِمۡ حَقٌّ  لِّلسَّآئِلِ وَ الۡمَحۡرُوۡمِ ﴿۱۹﴾  
وَ فِی الۡاَرۡضِ اٰیٰتٌ  لِّلۡمُوۡقِنِیۡنَ ﴿ۙ۲۰﴾ 
وَ  فِیۡۤ   اَنۡفُسِکُمۡ ؕ اَفَلَا  تُبۡصِرُوۡنَ ﴿۲۱﴾ 
وَ فِی السَّمَآءِ  رِزۡقُکُمۡ  وَ مَا تُوۡعَدُوۡنَ ﴿۲۲﴾ 
فَوَ رَبِّ السَّمَآءِ  وَ الۡاَرۡضِ  اِنَّہٗ  لَحَقٌّ مِّثۡلَ  مَاۤ   اَنَّکُمۡ   تَنۡطِقُوۡنَ ﴿٪۲۳﴾ 
ہَلۡ  اَتٰىکَ حَدِیۡثُ ضَیۡفِ  اِبۡرٰہِیۡمَ الۡمُکۡرَمِیۡنَ ﴿ۘ۲۴﴾ 
اِذۡ  دَخَلُوۡا عَلَیۡہِ  فَقَالُوۡا سَلٰمًا ؕ قَالَ سَلٰمٌ ۚ قَوۡمٌ  مُّنۡکَرُوۡنَ ﴿ۚ۲۵﴾ 
فَرَاغَ   اِلٰۤی  اَہۡلِہٖ   فَجَآءَ  بِعِجۡلٍ  سَمِیۡنٍ ﴿ۙ۲۶﴾ 
فَقَرَّبَہٗۤ  اِلَیۡہِمۡ  قَالَ  اَلَا  تَاۡکُلُوۡنَ ﴿۫۲۷﴾ 
فَاَوۡجَسَ مِنۡہُمۡ خِیۡفَۃً ؕ قَالُوۡا لَا تَخَفۡ ؕ وَ بَشَّرُوۡہُ  بِغُلٰمٍ  عَلِیۡمٍ ﴿۲۸﴾ 
فَاَقۡبَلَتِ امۡرَاَتُہٗ  فِیۡ صَرَّۃٍ  فَصَکَّتۡ وَجۡہَہَا وَ قَالَتۡ عَجُوۡزٌ  عَقِیۡمٌ ﴿۲۹﴾ 
قَالُوۡا کَذٰلِکِ ۙ قَالَ رَبُّکِ ؕ اِنَّہٗ  ہُوَ الۡحَکِیۡمُ  الۡعَلِیۡمُ ﴿۳۰﴾ 
قَالَ فَمَا خَطۡبُکُمۡ اَیُّہَا الۡمُرۡسَلُوۡنَ ﴿۳۱﴾ 
قَالُوۡۤا  اِنَّاۤ  اُرۡسِلۡنَاۤ  اِلٰی قَوۡمٍ مُّجۡرِمِیۡنَ ﴿ۙ۳۲﴾ 
لِنُرۡسِلَ عَلَیۡہِمۡ  حِجَارَۃً  مِّنۡ طِیۡنٍ ﴿ۙ۳۳﴾ 
مُّسَوَّمَۃً  عِنۡدَ رَبِّکَ  لِلۡمُسۡرِفِیۡنَ ﴿۳۴﴾ 
فَاَخۡرَجۡنَا مَنۡ کَانَ فِیۡہَا مِنَ الۡمُؤۡمِنِیۡنَ ﴿ۚ۳۵﴾ 
فَمَا وَجَدۡنَا فِیۡہَا غَیۡرَ بَیۡتٍ مِّنَ الۡمُسۡلِمِیۡنَ ﴿ۚ۳۶﴾ 
وَ تَرَکۡنَا فِیۡہَاۤ  اٰیَۃً  لِّلَّذِیۡنَ یَخَافُوۡنَ الۡعَذَابَ الۡاَلِیۡمَ ﴿ؕ۳۷﴾ 
وَ فِیۡ  مُوۡسٰۤی  اِذۡ  اَرۡسَلۡنٰہُ  اِلٰی فِرۡعَوۡنَ بِسُلۡطٰنٍ مُّبِیۡنٍ ﴿۳۸﴾ 
فَتَوَلّٰی بِرُکۡنِہٖ وَ قَالَ سٰحِرٌ اَوۡ مَجۡنُوۡنٌ ﴿۳۹﴾ 
فَاَخَذۡنٰہُ  وَ جُنُوۡدَہٗ  فَنَبَذۡنٰہُمۡ  فِی الۡیَمِّ وَ ہُوَ  مُلِیۡمٌ ﴿ؕ۴۰﴾ 
وَ فِیۡ عَادٍ  اِذۡ  اَرۡسَلۡنَا عَلَیۡہِمُ  الرِّیۡحَ الۡعَقِیۡمَ ﴿ۚ۴۱﴾ 
مَا تَذَرُ مِنۡ شَیۡءٍ اَتَتۡ عَلَیۡہِ  اِلَّا جَعَلَتۡہُ  کَالرَّمِیۡمِ ﴿ؕ۴۲﴾ 
وَ فِیۡ  ثَمُوۡدَ  اِذۡ  قِیۡلَ لَہُمۡ تَمَتَّعُوۡا حَتّٰی حِیۡنٍ ﴿۴۳﴾ 
فَعَتَوۡا عَنۡ  اَمۡرِ رَبِّہِمۡ فَاَخَذَتۡہُمُ الصّٰعِقَۃُ  وَ ہُمۡ  یَنۡظُرُوۡنَ ﴿۴۴﴾ 
فَمَا اسۡتَطَاعُوۡا مِنۡ قِیَامٍ  وَّ مَا کَانُوۡا مُنۡتَصِرِیۡنَ ﴿ۙ۴۵﴾ 
وَ قَوۡمَ نُوۡحٍ  مِّنۡ قَبۡلُ ؕ اِنَّہُمۡ کَانُوۡا قَوۡمًا فٰسِقِیۡنَ ﴿٪۴۶﴾ 
وَ السَّمَآءَ  بَنَیۡنٰہَا بِاَیۡىدٍ وَّ اِنَّا لَمُوۡسِعُوۡنَ ﴿۴۷﴾ 
وَ الۡاَرۡضَ فَرَشۡنٰہَا فَنِعۡمَ الۡمٰہِدُوۡنَ ﴿۴۸﴾ 
وَ مِنۡ کُلِّ  شَیۡءٍ خَلَقۡنَا زَوۡجَیۡنِ لَعَلَّکُمۡ  تَذَکَّرُوۡنَ ﴿۴۹﴾ 
فَفِرُّوۡۤا  اِلَی اللّٰہِ ؕ اِنِّیۡ  لَکُمۡ  مِّنۡہُ  نَذِیۡرٌ  مُّبِیۡنٌ ﴿ۚ۵۰﴾ 
وَ لَا تَجۡعَلُوۡا مَعَ اللّٰہِ  اِلٰـہًا  اٰخَرَ ؕ اِنِّیۡ لَکُمۡ  مِّنۡہُ  نَذِیۡرٌ  مُّبِیۡنٌ ﴿ۚ۵۱﴾ 
کَذٰلِکَ مَاۤ  اَتَی الَّذِیۡنَ مِنۡ قَبۡلِہِمۡ  مِّنۡ رَّسُوۡلٍ  اِلَّا  قَالُوۡا  سَاحِرٌ  اَوۡ مَجۡنُوۡنٌ ﴿ۚ۵۲﴾ 
اَتَوَاصَوۡا بِہٖ ۚ بَلۡ ہُمۡ قَوۡمٌ طَاغُوۡنَ ﴿ۚ۵۳﴾ 
فَتَوَلَّ عَنۡہُمۡ  فَمَاۤ   اَنۡتَ بِمَلُوۡمٍ  ﴿٭۫۵۴﴾
وَّ  ذَکِّرۡ فَاِنَّ  الذِّکۡرٰی تَنۡفَعُ الۡمُؤۡمِنِیۡنَ  ﴿۵۵﴾
وَ مَا خَلَقۡتُ الۡجِنَّ وَ الۡاِنۡسَ  اِلَّا لِیَعۡبُدُوۡنِ ﴿۵۶﴾ 
مَاۤ  اُرِیۡدُ مِنۡہُمۡ  مِّنۡ  رِّزۡقٍ وَّ مَاۤ  اُرِیۡدُ اَنۡ یُّطۡعِمُوۡنِ ﴿۵۷﴾ 
اِنَّ اللّٰہَ ہُوَ الرَّزَّاقُ  ذُو الۡقُوَّۃِ  الۡمَتِیۡنُ ﴿۵۸﴾  
فَاِنَّ لِلَّذِیۡنَ ظَلَمُوۡا ذَنُوۡبًا مِّثۡلَ ذَنُوۡبِ اَصۡحٰبِہِمۡ  فَلَا یَسۡتَعۡجِلُوۡنِ ﴿۵۹﴾ 
فَوَیۡلٌ  لِّلَّذِیۡنَ  کَفَرُوۡا مِنۡ یَّوۡمِہِمُ الَّذِیۡ یُوۡعَدُوۡنَ ﴿٪۶۰﴾ 
