اَلۡحَآقَّۃُ ۙ﴿۱﴾
مَا الۡحَآقَّۃُ ۚ﴿۲﴾ 
وَ مَاۤ  اَدۡرٰىکَ مَا الۡحَآقَّۃُ ؕ﴿۳﴾ 
کَذَّبَتۡ ثَمُوۡدُ  وَ عَادٌۢ  بِالۡقَارِعَۃِ ﴿۴﴾ 
فَاَمَّا ثَمُوۡدُ  فَاُہۡلِکُوۡا بِالطَّاغِیَۃِ ﴿۵﴾ 
وَ اَمَّا عَادٌ  فَاُہۡلِکُوۡا بِرِیۡحٍ صَرۡصَرٍ عَاتِیَۃٍ ۙ﴿۶﴾ 
سَخَّرَہَا عَلَیۡہِمۡ  سَبۡعَ  لَیَالٍ وَّ ثَمٰنِیَۃَ اَیَّامٍ ۙ حُسُوۡمًا ۙ فَتَرَی الۡقَوۡمَ فِیۡہَا صَرۡعٰی ۙ کَاَنَّہُمۡ  اَعۡجَازُ نَخۡلٍ خَاوِیَۃٍ ۚ﴿۷﴾ 
فَہَلۡ  تَرٰی لَہُمۡ  مِّنۡۢ بَاقِیَۃٍ ﴿۸﴾ 
وَ جَآءَ  فِرۡعَوۡنُ  وَ مَنۡ  قَبۡلَہٗ وَ الۡمُؤۡتَفِکٰتُ بِالۡخَاطِئَۃِ ۚ﴿۹﴾ 
فَعَصَوۡا  رَسُوۡلَ  رَبِّہِمۡ  فَاَخَذَہُمۡ  اَخۡذَۃً  رَّابِیَۃً ﴿۱۰﴾ 
اِنَّا  لَمَّا طَغَا  الۡمَآءُ  حَمَلۡنٰکُمۡ  فِی الۡجَارِیَۃِ ﴿ۙ۱۱﴾ 
لِنَجۡعَلَہَا  لَکُمۡ  تَذۡکِرَۃً  وَّ تَعِیَہَاۤ  اُذُنٌ وَّاعِیَۃٌ ﴿۱۲﴾ 
فَاِذَا  نُفِخَ  فِی الصُّوۡرِ نَفۡخَۃٌ  وَّاحِدَۃٌ ﴿ۙ۱۳﴾ 
وَّ حُمِلَتِ الۡاَرۡضُ وَ الۡجِبَالُ  فَدُکَّتَا دَکَّۃً   وَّاحِدَۃً ﴿ۙ۱۴﴾ 
فَیَوۡمَئِذٍ وَّقَعَتِ الۡوَاقِعَۃُ ﴿ۙ۱۵﴾ 
وَ انۡشَقَّتِ السَّمَآءُ  فَہِیَ یَوۡمَئِذٍ وَّاہِیَۃٌ ﴿ۙ۱۶﴾ 
وَّ الۡمَلَکُ  عَلٰۤی  اَرۡجَآئِہَا ؕ وَ یَحۡمِلُ عَرۡشَ رَبِّکَ فَوۡقَہُمۡ یَوۡمَئِذٍ ثَمٰنِیَۃٌ ﴿ؕ۱۷﴾ 
یَوۡمَئِذٍ تُعۡرَضُوۡنَ  لَا تَخۡفٰی مِنۡکُمۡ خَافِیَۃٌ ﴿۱۸﴾ 
فَاَمَّا مَنۡ اُوۡتِیَ کِتٰبَہٗ  بِیَمِیۡنِہٖ ۙ فَیَقُوۡلُ ہَآؤُمُ اقۡرَءُوۡا کِتٰبِیَہۡ ﴿ۚ۱۹﴾ 
اِنِّیۡ  ظَنَنۡتُ  اَنِّیۡ مُلٰقٍ حِسَابِیَہۡ ﴿ۚ۲۰﴾ 
فَہُوَ  فِیۡ  عِیۡشَۃٍ  رَّاضِیَۃٍ ﴿ۙ۲۱﴾ 
فِیۡ جَنَّۃٍ  عَالِیَۃٍ ﴿ۙ۲۲﴾ 
قُطُوۡفُہَا دَانِیَۃٌ ﴿۲۳﴾ 
کُلُوۡا وَ اشۡرَبُوۡا ہَنِیۡٓـئًۢا بِمَاۤ  اَسۡلَفۡتُمۡ فِی الۡاَیَّامِ الۡخَالِیَۃِ ﴿۲۴﴾ 
وَ اَمَّا مَنۡ  اُوۡتِیَ کِتٰبَہٗ بِشِمَالِہٖ ۬ۙ فَیَقُوۡلُ یٰلَیۡتَنِیۡ  لَمۡ  اُوۡتَ کِتٰبِیَہۡ  ﴿ۚ۲۵﴾
وَ  لَمۡ  اَدۡرِ  مَا حِسَابِیَہۡ ﴿ۚ۲۶﴾ 
یٰلَیۡتَہَا کَانَتِ الۡقَاضِیَۃَ ﴿ۚ۲۷﴾ 
مَاۤ  اَغۡنٰی عَنِّیۡ  مَالِیَہۡ ﴿ۚ۲۸﴾ 
ہَلَکَ عَنِّیۡ  سُلۡطٰنِیَہۡ ﴿ۚ۲۹﴾ 
خُذُوۡہُ  فَغُلُّوۡہُ ﴿ۙ۳۰﴾ 
ثُمَّ  الۡجَحِیۡمَ  صَلُّوۡہُ ﴿ۙ۳۱﴾ 
ثُمَّ  فِیۡ سِلۡسِلَۃٍ  ذَرۡعُہَا سَبۡعُوۡنَ  ذِرَاعًا  فَاسۡلُکُوۡہُ ﴿ؕ۳۲﴾ 
اِنَّہٗ  کَانَ  لَا  یُؤۡمِنُ بِاللّٰہِ الۡعَظِیۡمِ ﴿ۙ۳۳﴾ 
وَ لَا یَحُضُّ عَلٰی طَعَامِ الۡمِسۡکِیۡنِ ﴿ؕ۳۴﴾ 
فَلَیۡسَ لَہُ  الۡیَوۡمَ ہٰہُنَا حَمِیۡمٌ ﴿ۙ۳۵﴾ 
وَّ لَا طَعَامٌ   اِلَّا مِنۡ غِسۡلِیۡنٍ ﴿ۙ۳۶﴾ 
لَّا  یَاۡکُلُہٗۤ  اِلَّا الۡخَاطِـُٔوۡنَ ﴿٪۳۷﴾ 
فَلَاۤ  اُقۡسِمُ بِمَا  تُبۡصِرُوۡنَ ﴿ۙ۳۸﴾ 
وَ مَا  لَا تُبۡصِرُوۡنَ ﴿ۙ۳۹﴾ 
اِنَّہٗ  لَقَوۡلُ  رَسُوۡلٍ  کَرِیۡمٍ ﴿ۚۙ۴۰﴾  
وَّ مَا ہُوَ بِقَوۡلِ شَاعِرٍ ؕ قَلِیۡلًا  مَّا تُؤۡمِنُوۡنَ ﴿ۙ۴۱﴾ 
وَ لَا بِقَوۡلِ کَاہِنٍ ؕ قَلِیۡلًا مَّا تَذَکَّرُوۡنَ ﴿ؕ۴۲﴾ 
تَنۡزِیۡلٌ مِّنۡ رَّبِّ الۡعٰلَمِیۡنَ ﴿۴۳﴾ 
وَ لَوۡ تَقَوَّلَ عَلَیۡنَا بَعۡضَ الۡاَقَاوِیۡلِ ﴿ۙ۴۴﴾ 
لَاَخَذۡنَا مِنۡہُ  بِالۡیَمِیۡنِ ﴿ۙ۴۵﴾ 
ثُمَّ  لَقَطَعۡنَا مِنۡہُ  الۡوَتِیۡنَ ﴿۫ۖ۴۶﴾ 
فَمَا مِنۡکُمۡ  مِّنۡ اَحَدٍ عَنۡہُ حٰجِزِیۡنَ ﴿۴۷﴾ 
وَ  اِنَّہٗ  لَتَذۡکِرَۃٌ  لِّلۡمُتَّقِیۡنَ ﴿۴۸﴾ 
وَ اِنَّا  لَنَعۡلَمُ  اَنَّ مِنۡکُمۡ مُّکَذِّبِیۡنَ ﴿۴۹﴾ 
وَ  اِنَّہٗ  لَحَسۡرَۃٌ  عَلَی الۡکٰفِرِیۡنَ ﴿۵۰﴾ 
وَ  اِنَّہٗ  لَحَقُّ الۡیَقِیۡنِ ﴿۵۱﴾ 
فَسَبِّحۡ  بِاسۡمِ رَبِّکَ الۡعَظِیۡمِ ﴿٪۵۲﴾
